<?xml version="1.0" encoding="UTF-8" standalone="no"?>
<!-- Created with Inkscape (http://www.inkscape.org/) -->

<svg
   xmlns:dc="http://purl.org/dc/elements/1.1/"
   xmlns:cc="http://creativecommons.org/ns#"
   xmlns:rdf="http://www.w3.org/1999/02/22-rdf-syntax-ns#"
   xmlns:svg="http://www.w3.org/2000/svg"
   xmlns="http://www.w3.org/2000/svg"
   xmlns:sodipodi="http://sodipodi.sourceforge.net/DTD/sodipodi-0.dtd"
   xmlns:inkscape="http://www.inkscape.org/namespaces/inkscape"
   width="24"
   height="67"
   id="svg3184"
   version="1.1"
   inkscape:version="0.48.4 r9939"
   sodipodi:docname="flechas_right.svg">
  <defs
     id="defs3186" />
  <sodipodi:namedview
     id="base"
     pagecolor="#ffffff"
     bordercolor="#666666"
     borderopacity="1.0"
     inkscape:pageopacity="0.0"
     inkscape:pageshadow="2"
     inkscape:zoom="6.2124382"
     inkscape:cx="2.6963084"
     inkscape:cy="33.279162"
     inkscape:document-units="px"
     inkscape:current-layer="layer1"
     showgrid="false"
     inkscape:window-width="1440"
     inkscape:window-height="844"
     inkscape:window-x="0"
     inkscape:window-y="27"
     inkscape:window-maximized="1" />
  <metadata
     id="metadata3189">
    <rdf:RDF>
      <cc:Work
         rdf:about="">
        <dc:format>image/svg+xml</dc:format>
        <dc:type
           rdf:resource="http://purl.org/dc/dcmitype/StillImage" />
        <dc:title />
      </cc:Work>
    </rdf:RDF>
  </metadata>
  <g
     inkscape:label="Capa 1"
     inkscape:groupmode="layer"
     id="layer1"
     transform="translate(0,-985.36218)">
    <g
       id="g3026"
       transform="translate(-3.9989596,4.3594064)">
      <path
         style="fill:#ffffff"
         inkscape:connector-curvature="0"
         id="path73"
         d="m 6.71615,1010.3274 c 2.01,-1.43 4.23,-2.78 6.44,-3.89 0.93,-0.47 0.08,-1.04 -0.62,-0.69 -2.32,1.17 -4.66,2.56 -6.78,4.07 -0.84,0.6 0.45,0.87 0.96,0.51 z" />
      <path
         style="fill:#ffffff"
         inkscape:connector-curvature="0"
         id="path75"
         d="m 5.34615,1010.5074 c 1.68,1.92 2.97,4.34 4.28,6.52 0.26,0.44 1.69,-0.11 1.51,-0.4 -1.34,-2.24 -2.65,-4.7 -4.37,-6.67 -0.29,-0.33 -1.72,0.19 -1.42,0.55 z" />
      <path
         style="fill:#ffffff"
         inkscape:connector-curvature="0"
         id="path77"
         d="m 5.76615,1010.7274 c 2.97,0.77 5.94,1.53 8.9,2.32 1.48,0.39 2.96,0.81 4.44,1.23 1.4,0.4 2.95,0.56 4.29,1.13 0.51,0.22 1.87,-0.5 1.18,-0.79 -1.03,-0.44 -2.12,-0.61 -3.21,-0.86 -1.62,-0.37 -3.21,-0.92 -4.81,-1.35 -3.28,-0.9 -6.59,-1.73 -9.89,-2.59 -0.55,-0.14 -1.79,0.68 -0.9,0.91 z" />
    </g>
    <path
       style="fill:#ffffff"
       inkscape:connector-curvature="0"
       id="path97"
       d="m 21.601899,987.27097 c -3.340343,0.81721 -6.667437,1.69137 -9.975293,2.59694 -1.116228,0.30318 -2.2367732,0.61344 -3.3337646,0.94802 -1.8580886,0.57497 -3.7053728,1.47834 -5.6269728,1.57529 l 0.916184,1.70801 c 1.0947127,-1.8569 2.8980272,-3.12873 3.969175,-5.00993 0.6430228,-1.13242 -0.858408,-2.51065 -1.8007296,-1.48558 -1.4891921,1.62234 -2.4349245,3.5812 -3.5651564,5.46484 -0.4161669,0.69775 -0.049822,1.52904 0.6775474,1.7844 1.9008888,0.66088 3.7652925,1.7273 5.7666851,2.0502 1.5049249,0.23979 2.1999359,-2.07909 0.6810645,-2.32747 -2.0056949,-0.31588 -3.8700044,-1.38262 -5.7822906,-2.04036 l 0.6775233,1.78447 c 1.009343,-1.68553 1.8295733,-3.5174 3.14645,-4.98321 l -1.80073,-1.48558 c -1.0416089,1.88 -2.8465904,3.17028 -3.8646594,5.07464 -0.5314678,0.99683 0.4484229,2.08122 1.4718129,1.58406 2.7943235,-1.36977 5.8224159,-2.27312 8.8053632,-3.16541 3.293628,-0.99237 13.124835,-4.92644 9.637789,-4.07333 z" />
    <path
       style="fill:#ffffff"
       inkscape:connector-curvature="0"
       id="path101"
       d="m 11.2893,1025.4682 c 2.295908,1.1943 4.780514,2.0564 7.118731,3.1689 0.371184,0.1795 -0.02865,0.7054 -0.145167,1.0823 -0.169096,0.5023 -0.302101,1.0269 -0.449435,1.5343 -0.185046,0.6089 -0.406183,1.1954 -0.680578,1.7739 -0.346441,0.7086 -0.758449,0.3127 -1.344422,0.05 -2.228185,-0.9946 -4.417982,-1.9571 -6.8455417,-2.36 -0.1500413,-0.026 -0.2633146,0.1032 -0.3181936,0.2189 -0.2862889,0.7458 -0.4883651,1.5436 -0.9144225,2.2196 l 0.566372,0.092 c -0.2410229,-1.4124 -0.8593105,-2.7255 -1.4535374,-4.0237 -0.3607806,-0.7882 -0.7192632,-1.5666 -1.0142152,-2.3806 -0.1004352,-0.2948 -0.098274,-0.4597 -0.3829472,-0.5775 l 0.060021,0.6024 c 2.2361433,-1.2781 4.4871551,-2.5802 6.8276526,-3.6775 l -0.470402,-0.3821 c -0.277637,0.8259 -0.453895,1.6895 -0.731532,2.5154 -0.08624,0.2876 0.355911,0.4195 0.442149,0.132 0.270203,-0.8139 0.644624,-1.6216 0.91023,-2.4549 0.09597,-0.2898 -0.221416,-0.5026 -0.470402,-0.3821 -2.330765,1.0949 -4.5817769,2.397 -6.8276525,3.6774 -0.263855,0.1445 -0.1931573,0.4874 0.069754,0.6 -0.149501,-0.067 0.2268253,0.8301 0.2291233,0.8398 0.2443959,0.5999 0.5300193,1.2004 0.8036124,1.7934 0.5804389,1.2398 1.1654737,2.499 1.404739,3.8605 0.044879,0.2771 0.4348513,0.3186 0.5663721,0.092 0.299673,-0.4715 0.4859363,-0.9881 0.6699015,-1.5145 0.2411423,-0.6323 0.035005,-0.635 0.8333328,-0.4742 0.4426894,0.091 0.8728084,0.2152 1.3126594,0.3374 1.995957,0.5768 3.867963,1.5424 5.746187,2.4039 0.173562,0.082 0.353341,0.06 0.457422,-0.1081 1.062575,-1.6791 1.408061,-3.6101 2.048492,-5.467 0.04285,-0.1231 -0.01055,-0.3058 -0.135986,-0.3583 -1.473247,-0.6694 -3.009347,-1.1698 -4.507735,-1.7716 -1.078542,-0.4337 -2.168574,-0.9162 -3.299697,-1.2245 -0.09678,-0.018 -0.168829,0.1118 -0.07488,0.1616 z" />
    <g
       id="g3019"
       transform="matrix(0.78547293,0.23263496,-0.21046684,0.86820547,202.6469,134.94818)">
      <path
         style="fill:#ffffff"
         inkscape:connector-curvature="0"
         id="path151"
         d="m 32.26615,986.78738 c -0.64,0.08 -1.24,0.5 -1.75,0.87 -0.5,0.36 -1.47,0.61 -1.11,1.43 0.1,0.21 0.37,0.34 0.59,0.34 0.59,-0.02 1.11,-0.54 1.53,-0.88 0.41,-0.35 0.84,-0.87 1.03,-1.39 0.06,-0.16 -0.11,-0.39 -0.29,-0.37 z" />
      <path
         style="fill:#ffffff"
         inkscape:connector-curvature="0"
         id="path153"
         d="m 28.25615,989.52738 c -0.51,-0.29 -1.13,0.23 -1.53,0.5 -0.41,0.27 -1.22,0.57 -1.35,1.08 -0.05,0.2 0,0.44 0.16,0.58 0.61,0.55 1.4,-0.19 1.89,-0.56 0.31,-0.24 1.6,-1.17 0.83,-1.6 z" />
      <path
         style="fill:#ffffff"
         inkscape:connector-curvature="0"
         id="path155"
         d="m 23.97615,992.24738 c -0.48,-0.27 -0.97,0.04 -1.38,0.31 -0.49,0.32 -0.93,0.69 -1.38,1.05 -0.3,0.24 -0.25,0.74 -0.01,0.98 0.29,0.3 0.69,0.24 0.99,0.01 0.36,-0.29 0.72,-0.6 1.08,-0.89 0.33,-0.27 0.85,-0.49 0.91,-0.97 0.03,-0.2 -0.02,-0.38 -0.21,-0.49 z" />
      <path
         style="fill:#ffffff"
         inkscape:connector-curvature="0"
         id="path157"
         d="m 19.49615,995.15738 c -0.66,-0.11 -1.39,0.62 -1.9,0.97 -0.3,0.21 -0.44,0.59 -0.25,0.93 0.17,0.29 0.63,0.47 0.93,0.25 0.37,-0.27 0.76,-0.54 1.07,-0.88 0.18,-0.19 0.35,-0.41 0.42,-0.67 0.08,-0.23 0.02,-0.55 -0.27,-0.6 z" />
      <path
         style="fill:#ffffff"
         inkscape:connector-curvature="0"
         id="path159"
         d="m 13.72615,995.51738 c -0.31,0.94 -0.61,1.9 -0.73,2.88 -0.07,0.61 -0.3,1.76002 0.11,2.32002 0.31,0.43 0.69,0.59 1.21,0.7 1.18,0.24 2.38,0.38 3.56,0.65 0.53,0.12 0.98,-0.36 0.86,-0.87 -0.53,-2.24002 -2.81,-3.34002 -3.86,-5.26002 -0.4,-0.73 -1.46,-0.22 -1.3,0.54 0.17,0.82 0.1,1.56 -0.17,2.35 -0.21,0.61 0.53,1.05 1.03,0.78 0.29,-0.16 0.59,-0.29 0.91,-0.39 l -0.68,-1.17 c -0.2,0.2 -0.34,0.44 -0.54,0.64 -0.4,0.4 -0.19,1.02 0.32,1.18 0.42,0.13 0.85,0.20002 1.16,0.54002 l 0.5,-1.19002 c -0.51,-0.01 -1.01,-0.04 -1.51,-0.1 -0.73,-0.08 -0.9,0.98002 -0.35,1.31002 0.51,0.3 1.01,0.44 1.6,0.52 0.87,0.13 1.24,-1.17002 0.35,-1.35002 -0.58,-0.11 -1.2,-0.47 -1.76,-0.11 -0.26,0.16 -0.34,0.42 -0.3,0.71002 l 0.02,0.12 c 0.07,0.44 0.66,0.5 0.95,0.24 l 0.09,-0.08 -0.6,0.17 c 0.42,0.09 0.83,0.22 1.25,0.3 l 0.35,-1.35002 c -0.47,-0.07 -0.83,-0.13 -1.25,-0.39 l -0.35,1.31002 c 0.51,0.05 1.01,0.09 1.52,0.09 0.63,0.01 0.88,-0.76002 0.49,-1.19002 -0.49,-0.54 -1.12,-0.7 -1.81,-0.91 l 0.32,1.17 c 0.2,-0.2 0.34,-0.44 0.54,-0.64 0.48,-0.47 0.01,-1.42 -0.68,-1.17 -0.43,0.15 -0.83,0.31 -1.24,0.52 l 1.04,0.78 c 0.35,-1.02 0.39,-2.02 0.16,-3.07 l -1.29,0.54 c 0.98,1.78 3.26,2.91 3.73,4.93002 l 0.85,-0.86 c -0.58,-0.14 -3.92,-0.46 -3.97,-0.90002 -0.13,-1.45 0.46,-2.86 0.18,-4.29 -0.08,-0.38 -0.6,-0.32 -0.71,0 z" />
    </g>
    <g
       id="g3031"
       transform="translate(-7.5402423,-0.30864809)">
      <path
         style="fill:#ffffff"
         inkscape:connector-curvature="0"
         id="path171"
         d="m 22.33615,1052.2874 c 1.52,-0.79 2.67,-2.09 3.94,-3.2 0,-0.01 0,-0.02 -0.01,-0.03 -0.52,-1.16 -1.29,-2.2 -2.09,-3.19 -0.86,-1.05 -1.76,-2.1 -2.7,-3.08 -0.5,-0.5 -1.01,-0.99 -1.52,-1.48 -0.26,-0.25 -0.52,-0.49 -0.78,-0.73 -0.14,-0.14 -0.98,-0.74 -0.74,-0.96 0.98,-0.92 2.01,-1.8 2.97,-2.75 0.02,-0.01 -0.05,-0.06 -0.06,-0.07 -0.4,-0.28 -0.94,-0.32 -1.41,-0.34 -0.99,-0.06 -1.99,0.02 -2.97,0.09 -1,0.08 -1.99,0.17 -2.98,0.26 -0.75,0.06 -1.54,0.17 -2.3,0.09 -0.01,0 -0.02,0 -0.02,0.01 -0.69,1.67 -0.63,3.66 -0.6,5.42 0.02,1.26 0.09,2.51 0.22,3.76 0.01,0.05 0.15,0.15 0.2,0.11 1.05,-0.95 2.11,-1.89 3.15,-2.86 l -0.19,-0.1 c 2.06,3.36 5.35,5.68 7.64,8.86 0.03,0.04 0.22,0.12 0.18,0.07 -2.28,-3.17 -5.57,-5.5 -7.64,-8.85 -0.02,-0.04 -0.14,-0.14 -0.18,-0.1 -1.04,0.97 -2.1,1.91 -3.16,2.86 l 0.2,0.11 c -0.16,-1.43 -0.23,-2.87 -0.23,-4.3 -0.01,-1.13 0.03,-2.26 0.2,-3.37 0.07,-0.44 0.18,-0.88 0.33,-1.31 0.09,-0.27 0.63,-0.15 0.89,-0.16 2,-0.08 3.97,-0.38 5.97,-0.46 0.77,-0.03 1.62,-0.08 2.37,0.13 0.19,0.05 0.2,0.03 0.04,0.19 -0.14,0.14 -0.29,0.28 -0.44,0.42 -0.25,0.25 -0.52,0.49 -0.78,0.73 -0.58,0.53 -1.17,1.05 -1.75,1.58 -0.01,0.02 0.03,0.05 0.03,0.06 2.12,2 4.17,4.01 6.01,6.28 0.47,0.57 0.91,1.17 1.31,1.79 0.15,0.25 0.3,0.5 0.43,0.76 0.25,0.47 0.01,0.61 -0.32,0.92 -1.07,0.98 -2.09,2.03 -3.38,2.7 -0.04,0.03 0.12,0.16 0.17,0.14 z" />
      <path
         style="fill:#ffffff"
         inkscape:connector-curvature="0"
         id="path173"
         d="m 20.95615,1051.4474 c -0.03,0.12 -0.03,0.08 -0.02,0.21 0,0.03 0.02,0.06 0.05,0.05 0.11,-0.04 0.15,-0.04 0.17,-0.05 0.03,-0.02 0.06,-0.04 0.14,-0.09 -0.25,0.17 -0.12,0.06 -0.36,0.24 -0.03,0.03 0,0.09 0.03,0.09 0.17,0.01 0.1,0.02 0.27,-0.04 -0.11,0.05 -0.21,0.05 -0.32,-0.02 -0.19,-0.2 -0.19,-0.2 -0.02,-0.01 0.01,-0.02 -0.02,-0.04 -0.04,-0.05 l -0.12,-0.01 c -0.04,-0.01 -0.06,0.04 -0.05,0.07 0.03,0.04 0.05,0.09 0.08,0.13 0.24,0.31 -0.01,-0.17 -0.04,-0.23 -0.02,-0.05 -0.1,-0.03 -0.1,0.02 v 0.08 c 0,0.04 0.05,0.07 0.09,0.04 0.82,-0.71 1.55,-1.52 2.4,-2.2 0.37,-0.3 1.27,-0.68 1.17,-1.26 l -0.12,0.04 c 0.13,0.26 0.04,0.48 -0.04,0.72 l 0.11,0.03 c 0.07,-0.21 0.03,-0.49 0.2,-0.17 0.02,0.05 0.11,0.04 0.11,-0.02 -0.02,-0.16 -0.05,-0.27 -0.13,-0.41 -0.04,-0.07 -0.14,-0.01 -0.11,0.05 0.3,0.61 -0.5,0.79 -0.85,1.11 -0.05,0.04 0,0.12 0.06,0.09 0.29,-0.13 0.51,-0.34 0.76,-0.54 l -0.09,-0.08 c -0.42,0.53 -0.96,0.95 -1.56,1.25 l 0.07,0.1 c 0.47,-0.45 1.09,-0.76 1.36,-1.39 0.02,-0.05 -0.04,-0.1 -0.09,-0.07 -0.6,0.31 -0.96,0.91 -1.58,1.19 l 0.07,0.1 c 0.46,-0.52 1.08,-0.85 1.6,-1.3 l -0.09,-0.1 c -0.45,0.42 -0.88,0.86 -1.39,1.22 -0.31,0.22 -0.66,0.36 -0.92,0.65 -0.05,0.05 -0.01,0.13 0.06,0.12 0.64,-0.1 1.07,-0.67 1.63,-0.94 l -0.09,-0.1 c -0.49,0.76 -1.24,1.34 -2.08,1.65 l 0.06,0.12 c 0.68,-0.44 1.39,-0.83 1.98,-1.4 0.05,-0.05 -0.01,-0.15 -0.08,-0.11 -0.51,0.34 -0.97,0.78 -1.57,0.96 l 0.07,0.1 c 0.3,-0.41 0.71,-0.7 1.08,-1.03 l -0.09,-0.1 c -0.38,0.41 -0.98,0.7 -1.32,1.13 -0.08,0.11 -0.34,0.47 -0.34,0.47 0.15,0.04 0.24,0.04 0.39,-0.01 0.05,-0.01 0.06,-0.07 0.03,-0.11 -0.27,-0.35 -0.71,-0.56 -1.02,-0.88 -0.41,-0.41 -0.74,-0.88 -1.09,-1.33 -0.73,-0.93 -1.54,-1.81 -2.35,-2.68 -0.76,-0.84 -1.49,-1.71 -2.25,-2.56 -0.5,-0.57 -0.88,-1.29 -1.52,-1.73 -0.07,-0.05 -0.14,0.07 -0.07,0.12 0.67,0.47 1.09,1.26 1.63,1.87 0.76,0.85 1.49,1.72 2.26,2.56 0.76,0.81 1.49,1.66 2.19,2.51 0.37,0.45 0.7,0.91 1.09,1.33 0.13,0.14 0.27,0.29 0.42,0.39 0.09,0.07 0.18,0.13 0.27,0.18 0.35,0.2 0.33,0.25 -0.04,0.15 -0.05,-0.02 -0.09,0.01 -0.1,0.06 -0.01,0.07 -0.02,0.15 -0.02,0.23 0,0.04 0.04,0.07 0.08,0.06 0.37,-0.08 0.41,-0.43 0.69,-0.66 0.39,-0.34 0.81,-0.62 1.16,-1 0.06,-0.06 -0.02,-0.16 -0.09,-0.1 -0.38,0.34 -0.79,0.64 -1.1,1.06 -0.04,0.05 0.02,0.12 0.07,0.1 0.62,-0.18 1.08,-0.62 1.6,-0.97 l -0.08,-0.11 c -0.57,0.57 -1.27,0.95 -1.94,1.38 -0.08,0.05 -0.02,0.16 0.06,0.12 0.87,-0.32 1.63,-0.92 2.13,-1.7 0.04,-0.06 -0.03,-0.13 -0.09,-0.1 -0.55,0.28 -0.96,0.84 -1.59,0.93 l 0.06,0.12 c 0.29,-0.32 0.69,-0.47 1.03,-0.73 0.46,-0.34 0.87,-0.75 1.28,-1.14 0.07,-0.06 -0.02,-0.16 -0.09,-0.1 -0.52,0.45 -1.14,0.78 -1.6,1.31 -0.04,0.05 0.01,0.13 0.08,0.1 0.57,-0.25 0.92,-0.76 1.43,-1.1 -0.23,0.15 -0.42,0.47 -0.64,0.65 -0.21,0.18 -0.43,0.33 -0.63,0.52 -0.05,0.05 0.01,0.13 0.07,0.1 0.62,-0.31 1.18,-0.75 1.61,-1.29 0.04,-0.06 -0.04,-0.12 -0.09,-0.08 -0.23,0.2 -0.45,0.4 -0.73,0.53 l 0.07,0.09 c 0.47,-0.42 1.24,-0.51 0.88,-1.24 l -0.11,0.05 c 0.18,0.23 0.19,0.23 0.05,0 -0.02,-0.04 -0.09,-0.04 -0.1,0.01 -0.04,0.17 -0.08,0.34 -0.13,0.51 -0.02,0.07 0.09,0.1 0.11,0.03 0.1,-0.28 0.17,-0.53 0.04,-0.81 -0.03,-0.06 -0.12,-0.02 -0.11,0.04 0.07,0.4 -0.58,0.73 -0.84,0.92 -0.36,0.28 -0.69,0.57 -1.02,0.89 -0.35,0.34 -0.7,0.67 -1.05,1 -0.15,0.14 -0.3,0.28 -0.46,0.42 -0.24,0.21 0,0.39 0.14,0.52 0.05,0.05 0.11,-0.01 0.08,-0.07 -0.05,-0.06 -0.23,-0.34 -0.2,-0.1 0,0.04 0.08,0.05 0.09,0 0.04,-0.19 -0.01,-0.31 -0.11,-0.48 -0.02,-0.05 -0.1,-0.02 -0.09,0.03 0.05,0.18 0.12,0.31 0.22,0.46 0.01,0.02 0.04,0.03 0.06,0.02 0.15,-0.07 0.28,-0.15 0.41,-0.24 0.04,-0.03 0,-0.1 -0.04,-0.09 -0.38,0.12 0.12,-0.16 0.16,-0.18 0.05,-0.03 0.03,-0.11 -0.03,-0.1 -0.01,0.01 -0.47,0.14 -0.44,0.04 0.01,-0.06 -0.07,-0.09 -0.09,-0.03 z" />
      <path
         style="fill:#ffffff"
         inkscape:connector-curvature="0"
         id="path175"
         d="m 20.45615,1051.6974 -0.01,0.13 c 0,0.05 0.05,0.06 0.08,0.04 0.19,-0.14 0.31,-0.19 0.27,-0.41 -0.05,-0.21 -0.16,-0.38 -0.31,-0.53 -0.04,-0.04 -0.12,0 -0.11,0.06 0.1,0.34 0.2,0.65 0.39,0.95 l 0.1,-0.07 c -0.3,-0.37 -0.49,-0.8 -0.8,-1.17 -0.05,-0.06 -0.15,0.03 -0.09,0.09 0.22,0.28 0.36,0.6 0.58,0.88 0.04,0.05 0.14,0 0.12,-0.06 -0.13,-0.37 -0.36,-0.69 -0.54,-1.05 -0.13,-0.25 -0.23,-0.5 -0.51,-0.6 -0.05,-0.02 -0.1,0.03 -0.09,0.08 0.08,0.6 0.5,1.07 0.97,1.41 0.07,0.05 0.14,-0.05 0.09,-0.1 -0.54,-0.61 -0.97,-1.32 -1.62,-1.83 -0.06,-0.04 -0.14,0.04 -0.1,0.1 0.3,0.44 0.62,1.14 1.22,1.17 0.06,0.01 0.1,-0.05 0.07,-0.1 -0.27,-0.48 -0.64,-0.89 -0.98,-1.32 -0.27,-0.33 -0.52,-0.74 -0.96,-0.86 -0.05,-0.01 -0.1,0.03 -0.09,0.09 0.09,0.55 0.42,1.06 0.89,1.37 0.06,0.04 0.13,-0.03 0.1,-0.09 -0.4,-0.77 -0.87,-1.5 -1.46,-2.13 -0.06,-0.06 -0.15,0.01 -0.12,0.08 0.2,0.47 0.45,0.93 0.87,1.24 0.05,0.04 0.13,-0.04 0.1,-0.1 -0.32,-0.56 -0.71,-1.13 -1.26,-1.49 -0.07,-0.04 -0.13,0.03 -0.1,0.1 0.15,0.37 0.28,0.76 0.63,0.98 0.05,0.04 0.13,-0.01 0.11,-0.07 -0.15,-0.53 -0.53,-1.03 -0.98,-1.34 -0.06,-0.05 -0.13,0.03 -0.1,0.09 0.1,0.23 0.21,0.37 0.41,0.5 l 0.08,-0.12 c -0.15,-0.08 -0.29,-0.13 -0.44,-0.19 l -0.03,0.15 0.36,0.05 c 0.07,0.01 0.1,-0.08 0.06,-0.12 -0.13,-0.13 -0.26,-0.24 -0.41,-0.35 l -0.02,0.13 c 0.26,0.03 0.34,0.04 0.22,0.04 -0.33,-0.16 -0.52,-0.39 -0.58,-0.72 -0.04,-0.15 -0.1,-0.28 -0.18,-0.42 -0.04,-0.05 -0.14,-0.04 -0.14,0.03 -0.01,0.47 0.25,1.03 0.69,1.23 0.06,0.03 0.1,-0.03 0.09,-0.08 -0.14,-0.69 -0.75,-1.24 -1.21,-1.73 -0.06,-0.07 -0.16,0.02 -0.11,0.09 0.38,0.47 0.64,1.01 1.04,1.47 0.06,0.07 0.15,-0.03 0.1,-0.1 -0.5,-0.67 -0.99,-1.36 -1.56,-1.98 -0.06,-0.06 -0.16,0.01 -0.12,0.08 0.3,0.52 0.5,1.09 0.92,1.52 0.04,0.04 0.13,0.02 0.13,-0.04 -0.03,-0.38 -0.19,-0.81 -0.48,-1.05 -0.36,-0.28 -0.3,0.36 -0.27,0.49 0.01,0.06 0.12,0.08 0.14,0 0.06,-0.28 0.06,-0.53 -0.03,-0.81 -0.02,-0.06 -0.09,-0.07 -0.13,-0.02 -0.11,0.17 -0.19,0.35 -0.29,0.52 -0.02,0.05 0.01,0.11 0.06,0.11 0.18,0.01 0.36,-0.01 0.54,0.02 l -0.03,-0.13 c -0.16,0.08 -0.31,0.08 -0.47,0.01 l -0.01,0.14 c 0.18,-0.05 0.36,-0.05 0.54,-0.09 0.08,-0.01 0.07,-0.13 -0.01,-0.14 -0.25,-0.01 -0.5,-0.02 -0.75,-0.05 l 0.01,0.14 c 0.26,-0.05 0.52,-0.06 0.77,-0.12 0.07,-0.02 0.08,-0.12 0.01,-0.14 -0.31,-0.07 -0.65,0.02 -0.93,-0.14 l -0.02,0.13 c 0.23,-0.07 0.47,-0.08 0.71,-0.12 0.09,-0.02 0.06,-0.13 -0.01,-0.15 -0.27,-0.04 -0.54,-0.08 -0.81,-0.13 l -0.02,0.14 c 0.22,-0.01 0.44,0.01 0.67,0 0.07,-0.01 0.1,-0.13 0.02,-0.14 -0.25,-0.05 -0.49,-0.08 -0.73,-0.15 l -0.01,0.14 c 0.21,-0.05 0.38,-0.04 0.59,-0.04 0.08,0 0.1,-0.13 0.02,-0.15 -0.26,-0.05 -0.53,-0.07 -0.8,-0.13 l -0.02,0.14 c 0.28,0.01 0.55,0.04 0.83,0.03 0.09,0 0.09,-0.13 0,-0.14 -0.33,-0.06 -0.66,-0.07 -0.97,-0.21 l -0.01,0.14 c 0.28,-0.07 0.56,-0.01 0.83,-0.1 0.07,-0.03 0.08,-0.12 0.01,-0.14 -0.18,-0.07 -0.35,-0.1 -0.53,-0.13 -0.1,-0.02 -0.2,-0.04 -0.29,-0.06 -0.32,-0.08 0.19,-0.06 0.3,-0.03 l 0.02,-0.14 c -0.24,0.01 -0.47,-0.04 -0.7,-0.1 -0.09,-0.03 -0.13,0.11 -0.04,0.14 0.3,0.1 0.59,0.22 0.86,0.38 l 0.02,-0.13 c -0.76,0.09 -0.45,-0.51 -0.47,-0.8 0,-0.1 -0.14,-0.1 -0.14,-0.01 -0.02,0.43 0.06,0.86 0.22,1.26 0.02,0.07 0.14,0.04 0.14,-0.03 -0.03,-0.45 -0.05,-0.9 -0.24,-1.33 -0.02,-0.04 -0.1,-0.05 -0.12,0 -0.09,0.2 -0.14,0.4 -0.2,0.61 l 0.14,0.01 c -0.04,-0.29 -0.06,-0.54 -0.22,-0.78 -0.03,-0.04 -0.1,-0.05 -0.13,0 -0.16,0.24 -0.14,0.48 -0.03,0.74 0.03,0.05 0.1,0.05 0.13,0 0.18,-0.28 0.17,-0.65 -0.03,-0.92 -0.03,-0.03 -0.1,-0.03 -0.12,0.01 -0.11,0.22 -0.06,0.44 -0.03,0.67 0.01,0.08 0.13,0.08 0.14,0.01 0.08,-0.33 0.06,-0.72 -0.16,-1 -0.02,-0.03 -0.08,-0.03 -0.1,0 -0.13,0.15 -0.17,0.32 -0.25,0.5 l 0.14,0.03 c 0.01,-0.15 0.13,-0.55 -0.04,-0.66 -0.23,-0.14 -0.35,0.15 -0.47,0.29 l 0.12,0.08 c 0.08,-0.2 0.19,-0.37 0.35,-0.52 0.06,-0.07 -0.03,-0.16 -0.1,-0.11 -0.16,0.12 -0.32,0.22 -0.49,0.31 l 0.08,0.12 c 0.12,-0.13 0.19,-0.25 0.26,-0.42 0.03,-0.05 -0.05,-0.12 -0.1,-0.08 -0.41,0.26 -0.72,0.62 -1.14,0.88 -0.42,0.25 -0.8,0.6 -1.18,0.91 l 0.12,0.09 c 0.19,-0.37 0.23,-0.75 0.24,-1.16 0.02,-0.55 0.05,-1.1 0.06,-1.65 0.01,-0.58 -0.02,-1.17 -0.05,-1.76 -0.03,-0.59 -0.17,-1.82 0.64,-1.84 1.18,-0.01 2.37,0.08 3.54,0.03 1.07,-0.04 2.09,-0.39 3.16,-0.4 l -0.03,-0.14 c -1.05,0.57 -1.95,1.33 -2.75,2.21 -0.03,0.03 -0.03,0.07 -0.01,0.11 0.31,0.43 0.57,0.89 0.91,1.3 0.33,0.41 0.74,0.77 1.11,1.15 0.8,0.8 1.58,1.62 2.4,2.4 0.85,0.82 1.68,1.63 2.4,2.57 0.57,0.75 1.35,1.58 1.54,2.52 0.02,0.1 0.17,0.06 0.15,-0.03 -0.22,-1.09 -1.19,-2.1 -1.85,-2.94 -0.99,-1.26 -2.23,-2.29 -3.36,-3.42 -0.54,-0.53 -1.05,-1.09 -1.59,-1.63 -0.57,-0.57 -1.02,-1.18 -1.47,-1.85 -0.17,-0.26 0.69,-0.87 0.89,-1.06 0.52,-0.48 1.07,-0.86 1.7,-1.2 0.06,-0.03 0.04,-0.14 -0.04,-0.14 -1.11,0.02 -2.19,0.37 -3.3,0.41 -1.23,0.05 -2.49,-0.15 -3.71,-0.01 -0.28,0.03 -0.38,0.26 -0.41,0.52 -0.07,0.61 -0.08,1.21 -0.05,1.83 0.04,0.65 0.04,1.31 0.01,1.96 -0.02,0.68 0.07,1.53 -0.26,2.14 -0.04,0.08 0.05,0.15 0.12,0.1 0.42,-0.35 0.83,-0.71 1.3,-0.99 0.36,-0.22 0.62,-0.55 0.98,-0.78 l -0.11,-0.09 -0.22,0.35 c -0.05,0.06 0.01,0.16 0.08,0.12 0.19,-0.1 0.36,-0.21 0.53,-0.33 l -0.1,-0.11 c -0.17,0.18 -0.3,0.36 -0.39,0.58 -0.03,0.07 0.07,0.14 0.12,0.08 0,0 0.28,-0.37 0.3,-0.17 0.01,0.14 -0.03,0.28 -0.03,0.42 -0.01,0.09 0.11,0.1 0.14,0.02 0.01,-0.03 0.14,-0.49 0.23,-0.17 0.05,0.19 0.04,0.4 0,0.59 h 0.14 c -0.02,-0.17 0.01,-0.71 0.02,-0.12 0.08,-0.05 0.11,0 0.08,0.14 0.01,0.11 0.03,0.21 0.04,0.32 0.02,0.07 0.13,0.07 0.15,0 0.04,-0.16 0.11,-0.51 0.2,-0.13 0.05,0.26 0.05,0.54 0.07,0.81 l 0.14,-0.03 c -0.15,-0.38 -0.23,-0.79 -0.21,-1.19 l -0.14,-0.01 c 0.01,0.19 -0.19,0.58 -0.05,0.76 0.18,0.22 0.43,0.22 0.7,0.19 0.06,-0.01 0.07,-0.1 0.02,-0.13 -0.29,-0.17 -0.58,-0.3 -0.9,-0.4 l -0.04,0.14 c 0.24,0.07 0.48,0.12 0.73,0.11 0.08,-0.01 0.11,-0.12 0.03,-0.15 -0.24,-0.07 -0.47,-0.1 -0.71,-0.02 -0.05,0.01 -0.08,0.08 -0.04,0.12 0.33,0.29 0.79,0.25 1.19,0.39 v -0.14 c -0.27,0.1 -0.55,0.04 -0.83,0.11 -0.08,0.02 -0.07,0.11 -0.01,0.14 0.33,0.14 0.67,0.15 1.02,0.21 v -0.14 c -0.27,0 -0.55,-0.03 -0.82,-0.03 -0.08,0 -0.11,0.12 -0.03,0.14 0.27,0.06 0.53,0.08 0.8,0.13 l 0.02,-0.14 c -0.21,0 -0.41,0 -0.62,0.05 -0.07,0.02 -0.07,0.12 0,0.14 0.24,0.07 0.48,0.1 0.73,0.14 l 0.02,-0.14 c -0.22,0.01 -0.45,0 -0.67,0.01 -0.08,0 -0.11,0.12 -0.02,0.14 0.28,0.05 0.56,0.09 0.84,0.14 l -0.01,-0.14 c -0.24,0.04 -0.48,0.05 -0.72,0.12 -0.05,0.01 -0.07,0.1 -0.02,0.13 0.31,0.17 0.63,0.08 0.96,0.16 l 0.01,-0.14 c -0.25,0.06 -0.51,0.07 -0.77,0.12 -0.08,0.02 -0.06,0.13 0.02,0.14 0.24,0.04 0.49,0.04 0.74,0.06 l -0.01,-0.15 c -0.18,0.04 -0.36,0.04 -0.54,0.09 -0.06,0.02 -0.08,0.12 0,0.14 0.21,0.05 0.38,0.07 0.57,-0.03 0.07,-0.03 0.04,-0.12 -0.03,-0.13 -0.14,-0.02 -0.26,-0.02 -0.4,-0.01 -0.02,0 0.19,-0.39 0.21,-0.43 l -0.13,-0.02 c 0.08,0.25 0.09,0.48 0.03,0.74 l 0.14,0.01 c -0.08,-0.31 0.23,-0.14 0.31,0.02 0.08,0.17 0.14,0.37 0.16,0.56 l 0.12,-0.04 c -0.42,-0.43 -0.61,-0.98 -0.9,-1.49 l -0.12,0.08 c 0.57,0.62 1.07,1.3 1.57,1.98 l 0.1,-0.1 c -0.39,-0.45 -0.65,-1 -1.03,-1.46 l -0.11,0.09 c 0.33,0.35 0.66,0.7 0.93,1.09 0.07,0.11 0.46,0.68 0.1,0.31 -0.22,-0.22 -0.35,-0.59 -0.35,-0.9 l -0.13,0.03 c 0.15,0.23 0.21,0.96 0.6,0.98 0.15,0 0.17,-0.2 0.09,-0.28 -0.08,-0.08 -0.32,-0.05 -0.31,0.09 0.05,0.34 0.43,0.43 0.72,0.45 0.05,0 0.1,-0.06 0.07,-0.11 -0.13,-0.19 -0.3,-0.29 -0.53,-0.24 -0.07,0.02 -0.07,0.1 -0.02,0.13 0.13,0.1 0.26,0.21 0.37,0.33 l 0.06,-0.13 -0.36,-0.05 c -0.09,-0.01 -0.1,0.12 -0.02,0.14 0.13,0.05 0.27,0.11 0.4,0.17 0.08,0.04 0.16,-0.07 0.08,-0.12 -0.18,-0.11 -0.3,-0.26 -0.36,-0.44 l -0.1,0.09 c 0.41,0.29 0.76,0.76 0.91,1.25 l 0.11,-0.08 c -0.33,-0.21 -0.45,-0.59 -0.59,-0.93 l -0.1,0.1 c 0.53,0.33 0.91,0.9 1.21,1.43 l 0.1,-0.1 c -0.39,-0.29 -0.62,-0.73 -0.81,-1.18 l -0.12,0.09 c 0.59,0.62 1.05,1.34 1.44,2.09 l 0.1,-0.09 c -0.4,-0.27 -0.67,-0.69 -0.8,-1.16 0.02,0.06 0.43,0.34 0.52,0.44 0.12,0.14 0.22,0.29 0.34,0.43 0.12,0.15 0.24,0.29 0.35,0.44 0.07,0.07 0.68,0.76 0.31,0.56 -0.37,-0.19 -0.59,-0.68 -0.81,-1.01 l -0.11,0.1 c 0.65,0.49 1.06,1.2 1.6,1.79 l 0.09,-0.11 c -0.21,-0.15 -0.39,-0.32 -0.55,-0.51 -0.1,-0.12 -0.55,-1.11 -0.14,-0.43 0.24,0.38 0.5,0.83 0.64,1.25 l 0.12,-0.06 c -0.22,-0.28 -0.36,-0.6 -0.59,-0.88 l -0.09,0.09 c 0.3,0.37 0.5,0.8 0.8,1.17 0.05,0.05 0.14,-0.02 0.1,-0.08 -0.18,-0.28 -0.28,-0.59 -0.38,-0.92 l -0.1,0.06 c 0.23,0.2 0.3,0.46 0.34,0.75 0.01,0.06 0.09,0.05 0.1,0.01 0.04,-0.08 0.06,-0.16 0.09,-0.24 0.02,-0.05 -0.05,-0.08 -0.08,-0.05 -0.09,0.06 -0.31,0.33 -0.31,0.21 0.01,-0.06 -0.08,-0.06 -0.08,0 z" />
      <path
         style="fill:#ffffff"
         inkscape:connector-curvature="0"
         id="path177"
         d="m 24.13615,1049.1374 0.06,0.1 c 0.02,0.03 0.15,0.14 0.19,0.1 0.17,-0.2 0.18,-0.47 0.12,-0.72 -0.01,-0.03 -0.17,-0.15 -0.2,-0.11 -0.15,0.28 -0.15,0.58 -0.2,0.89 l 0.19,0.11 c -0.03,-0.36 -0.02,-0.73 -0.07,-1.1 0,-0.05 -0.19,-0.14 -0.19,-0.1 -0.01,0.28 0.04,0.55 0.01,0.83 l 0.19,0.12 c -0.04,-0.43 -0.1,-0.86 -0.26,-1.26 -0.01,-0.03 -0.19,-0.15 -0.19,-0.11 -0.05,0.27 -0.02,0.53 -0.06,0.8 l 0.19,0.11 c -0.07,-0.25 -0.14,-0.51 -0.24,-0.75 -0.02,-0.06 -0.2,-0.13 -0.19,-0.11 0.13,0.44 0.31,0.86 0.62,1.2 0.01,0.02 0.18,0.12 0.17,0.08 -0.04,-0.48 -0.35,-0.92 -0.67,-1.26 -0.01,-0.01 -0.18,-0.12 -0.17,-0.07 0.03,0.38 0.21,0.73 0.24,1.12 l 0.19,0.1 c -0.1,-0.4 -0.19,-0.8 -0.22,-1.21 l -0.2,-0.11 c 0.08,0.35 0.14,0.7 0.18,1.05 0.01,0.05 0.19,0.14 0.19,0.12 0.05,-0.37 -0.02,-0.73 -0.05,-1.1 l -0.19,-0.09 c 0.22,0.38 0.44,0.76 0.7,1.11 0.02,0.03 0.21,0.13 0.18,0.08 -0.22,-0.38 -0.54,-0.69 -0.72,-1.1 l -0.17,-0.08 c 0.31,0.34 0.54,0.74 0.89,1.04 0.01,0.01 0.16,0.11 0.16,0.06 -0.03,-0.22 -0.12,-0.36 -0.25,-0.54 -0.09,-0.13 -0.19,-0.24 -0.29,-0.37 l -0.01,0.1 c 0.07,0.1 0.14,0.21 0.2,0.31 0.04,0.14 0.13,0.22 0.27,0.23 -0.11,-0.17 -0.21,-0.35 -0.32,-0.52 -0.22,-0.34 -0.44,-0.68 -0.68,-1.01 -0.02,-0.03 -0.2,-0.13 -0.19,-0.09 0.07,0.39 0.34,0.7 0.56,1.02 0.18,0.06 0.18,0 0.01,-0.16 l -0.24,-0.34 c -0.16,-0.23 -0.34,-0.45 -0.54,-0.66 -0.01,-0.02 -0.18,-0.12 -0.17,-0.08 0.09,0.52 0.4,0.95 0.55,1.45 l 0.19,0.11 c -0.2,-0.51 -0.31,-1.04 -0.59,-1.51 -0.02,-0.02 -0.19,-0.13 -0.19,-0.09 0.03,0.48 0.29,0.88 0.41,1.33 0.01,0.06 0.2,0.12 0.19,0.1 -0.11,-0.45 -0.21,-0.88 -0.45,-1.27 -0.02,-0.03 -0.2,-0.14 -0.19,-0.09 0.04,0.38 0.23,0.71 0.29,1.09 l 0.2,0.1 c -0.23,-0.54 -0.44,-1.08 -0.78,-1.56 -0.03,-0.03 -0.2,-0.11 -0.19,-0.09 0.26,0.6 0.63,1.13 1.02,1.65 0.02,0.04 0.21,0.13 0.18,0.08 -0.48,-0.72 -0.92,-1.49 -1.7,-1.93 -0.01,0 -0.11,-0.05 -0.08,0 0.24,0.38 0.52,0.71 0.82,1.03 0.17,0.18 0.34,0.32 0.53,0.47 -0.22,-0.17 -0.41,-0.37 -0.61,-0.57 -0.19,-0.2 -0.37,-0.42 -0.53,-0.64 0.14,0.19 0.32,0.36 0.49,0.54 0.38,0.41 0.93,0.88 1.13,1.41 l 0.18,0.07 c -0.68,-0.67 -0.98,-1.61 -1.61,-2.33 -0.02,-0.03 -0.2,-0.11 -0.17,-0.06 0.54,0.72 0.99,1.49 1.48,2.24 0.02,0.04 0.19,0.12 0.18,0.09 -0.28,-0.79 -0.61,-1.57 -1.1,-2.27 -0.02,-0.03 -0.2,-0.11 -0.19,-0.09 0.27,0.66 0.68,1.23 1.08,1.81 0.02,0.03 0.2,0.11 0.19,0.09 -0.2,-0.55 -0.47,-1.03 -0.83,-1.49 l -0.13,-0.16 -0.13,-0.02 c 0.13,0.16 0.26,0.32 0.38,0.5 0.21,0.29 0.42,0.59 0.66,0.87 0.02,0.02 0.19,0.11 0.18,0.07 -0.11,-0.39 -0.35,-0.68 -0.61,-0.97 -0.08,-0.09 -0.15,-0.17 -0.23,-0.25 0.07,0.07 -0.51,-0.62 -0.16,-0.28 0.23,0.24 0.42,0.52 0.59,0.81 0.06,0.1 0.35,0.38 0.07,0.04 -0.24,-0.3 -0.49,-0.59 -0.71,-0.9 -0.08,-0.1 -0.14,-0.21 -0.21,-0.31 l -0.14,-0.12 c 0.11,0.12 0.21,0.25 0.31,0.38 0.21,0.26 0.36,0.56 0.45,0.88 l 0.17,0.08 c -0.54,-0.54 -0.75,-1.3 -1.33,-1.82 -0.01,-0.01 -0.16,-0.1 -0.16,-0.06 0.11,0.66 0.59,1.16 0.78,1.78 l 0.2,0.11 c -0.31,-0.8 -0.59,-1.6 -1.16,-2.25 -0.02,-0.02 -0.19,-0.12 -0.18,-0.08 0.16,0.64 0.54,1.17 0.77,1.77 l 0.2,0.1 c -0.34,-0.7 -0.61,-1.44 -1.23,-1.96 -0.01,-0.01 -0.17,-0.09 -0.16,-0.06 0.23,0.57 0.57,1.09 0.76,1.68 l 0.19,0.1 c -0.22,-0.56 -0.42,-1.12 -0.72,-1.64 -0.03,-0.04 -0.21,-0.13 -0.18,-0.08 0.25,0.45 0.51,0.9 0.58,1.43 l 0.19,0.09 c -0.33,-0.47 -0.62,-1.22 -0.77,-1.77 l -0.18,-0.08 c 0.51,0.56 0.75,1.28 1.08,1.95 0.02,0.05 0.2,0.12 0.19,0.11 -0.26,-0.7 -0.57,-1.34 -1.06,-1.9 -0.03,-0.03 -0.21,-0.11 -0.17,-0.06 0.42,0.54 0.67,1.17 0.97,1.78 l 0.19,0.09 c -0.43,-0.67 -0.73,-1.4 -1.34,-1.93 -0.02,-0.02 -0.19,-0.11 -0.15,-0.05 0.23,0.46 0.53,0.88 0.7,1.36 l 0.19,0.1 c -0.39,-0.51 -0.79,-1.02 -1.21,-1.51 -0.03,-0.02 -0.21,-0.11 -0.18,-0.06 0.38,0.52 0.7,1.09 1.29,1.38 0.01,0 0.11,0.05 0.08,0 -0.15,-0.26 -0.35,-0.46 -0.57,-0.66 -0.21,-0.2 -0.42,-0.41 -0.63,-0.61 l -0.29,-0.28 c -0.08,-0.17 -0.13,-0.19 -0.15,-0.08 0.57,0.58 0.94,1.27 1.67,1.69 0,0 0.09,0.04 0.08,0.01 -0.18,-0.5 -0.59,-0.87 -0.97,-1.22 -0.5,-0.45 -0.97,-0.92 -1.55,-1.25 -0.01,0 -0.1,-0.04 -0.09,-0.01 0.2,0.47 0.61,0.81 0.99,1.15 0.37,0.33 0.72,0.67 1.2,0.84 0.02,0.01 0.05,0.01 0.03,-0.02 -0.28,-0.55 -0.83,-0.89 -1.26,-1.31 -0.26,-0.26 -0.54,-0.49 -0.9,-0.55 -0.02,0 -0.03,0.01 -0.02,0.03 0.36,0.64 1,1.04 1.59,1.45 0.32,0.23 0.61,0.49 0.88,0.77 0.67,0.71 -0.21,-0.01 -0.34,-0.17 -0.24,-0.3 -0.46,-0.61 -0.71,-0.9 -0.21,-0.24 -0.4,-0.48 -0.58,-0.75 -0.17,-0.13 -0.16,-0.1 0.02,0.07 0.09,0.09 0.18,0.19 0.26,0.29 0.36,0.41 0.71,0.83 1.06,1.25 -0.48,-0.56 -0.85,-1.27 -1.48,-1.67 -0.01,-0.01 -0.13,-0.06 -0.11,-0.03 0.21,0.6 0.7,1.08 1.21,1.44 0.07,0.05 0.21,0.08 0.08,-0.02 -0.35,-0.27 -0.63,-0.59 -0.92,-0.93 -0.05,-0.06 -0.49,-0.4 -0.15,-0.06 0.14,0.14 0.28,0.28 0.42,0.41 0.31,0.31 0.62,0.64 0.91,0.94 -0.3,-0.31 -0.53,-0.67 -0.77,-1.03 -0.18,-0.26 -0.35,-0.5 -0.48,-0.79 0,-0.02 0.4,0.29 0.45,0.34 0.1,0.12 0.2,0.23 0.3,0.34 0.17,0.18 0.34,0.36 0.5,0.55 0.28,0.36 -0.2,-0.33 -0.26,-0.41 -0.21,-0.29 -0.42,-0.58 -0.66,-0.85 -0.02,-0.02 -0.2,-0.11 -0.17,-0.06 0.47,0.63 0.99,1.27 1.75,1.53 0,0 0.04,0.02 0.04,-0.01 -0.22,-0.54 -0.73,-0.96 -1.21,-1.29 -0.04,-0.02 -0.2,-0.09 -0.1,0 0.45,0.4 0.89,0.8 1.24,1.29 -0.25,-0.35 -0.49,-0.7 -0.82,-0.98 -0.01,-0.01 -0.19,-0.11 -0.15,-0.05 0.21,0.38 0.47,0.73 0.72,1.09 0.03,0.03 0.2,0.11 0.19,0.09 -0.27,-0.72 -0.83,-1.31 -1.4,-1.79 -0.02,-0.02 -0.2,-0.1 -0.16,-0.05 0.2,0.26 0.39,0.53 0.57,0.81 0.18,0.26 -0.01,-0.17 -0.03,-0.21 -0.09,-0.13 -0.17,-0.27 -0.25,-0.4 -0.18,-0.29 -0.41,-0.52 -0.72,-0.66 -0.01,0 -0.07,-0.03 -0.07,0 0.1,0.67 0.55,1.29 0.99,1.79 0.02,0.02 0.19,0.11 0.18,0.07 -0.28,-0.83 -0.82,-1.53 -1.43,-2.15 -0.02,-0.01 -0.19,-0.11 -0.18,-0.07 0.2,0.54 0.52,1.02 0.74,1.56 l 0.17,0.08 c -0.54,-0.66 -0.82,-1.51 -1.57,-1.98 -0.01,0 -0.12,-0.06 -0.12,-0.02 0.09,0.45 0.41,0.89 0.81,1.12 0.01,0 0.09,0.04 0.09,0.02 0.05,-0.59 -0.71,-1.25 -1.21,-1.44 -0.01,0 -0.07,-0.03 -0.06,0 0.15,0.58 0.77,1.44 1.38,1.6 0.01,0 0.05,0.01 0.04,-0.01 -0.18,-0.73 -0.83,-1.42 -1.48,-1.78 -0.02,-0.02 -0.12,-0.05 -0.07,0.01 0.47,0.52 0.9,1.06 1.37,1.58 0.02,0.02 0.19,0.1 0.17,0.07 -0.14,-0.29 -0.32,-0.52 -0.54,-0.76 -0.12,-0.14 -0.25,-0.27 -0.38,-0.41 -0.12,-0.13 -0.23,-0.27 -0.33,-0.42 0.15,0.04 0.26,0.11 0.34,0.23 0.33,0.38 0.62,0.86 1.08,1.09 0,0.01 0.09,0.05 0.08,0.01 -0.14,-0.59 -0.66,-1.03 -1.13,-1.38 -0.01,-0.01 -0.15,-0.07 -0.14,-0.04 0.31,0.65 0.84,1.16 1.37,1.61 0.02,0.02 0.19,0.11 0.16,0.05 -0.33,-0.62 -0.86,-1.15 -1.45,-1.53 0,-0.01 -0.14,-0.06 -0.1,-0.01 0.22,0.27 0.46,0.51 0.72,0.74 0.2,0.17 0.4,0.34 0.59,0.52 0.24,0.21 0.16,0.22 -0.25,0.06 -0.09,-0.09 -0.18,-0.17 -0.26,-0.26 -0.2,-0.21 -0.38,-0.44 -0.56,-0.66 -0.03,-0.09 -0.08,-0.1 -0.14,-0.04 l 0.28,0.31 c 0.23,0.25 0.45,0.52 0.65,0.79 0.03,0.04 0.21,0.13 0.18,0.08 -0.38,-0.57 -0.83,-1.41 -1.57,-1.56 -0.01,0 -0.03,0 -0.02,0.02 0.19,0.54 0.63,0.97 1.01,1.36 -0.47,-0.48 -0.75,-1.08 -1.3,-1.49 -0.01,-0.01 -0.16,-0.09 -0.13,-0.04 0.33,0.54 0.63,1.13 1.18,1.47 0,0.01 0.12,0.07 0.11,0.03 -0.16,-0.48 -0.6,-0.95 -1.06,-1.15 -0.01,-0.01 -0.06,-0.03 -0.06,0 0.06,0.68 0.87,1.03 1.34,1.41 0.01,0.01 0.19,0.11 0.15,0.05 -0.2,-0.33 -0.41,-0.64 -0.77,-0.79 -0.01,0 -0.07,-0.02 -0.06,0.01 0.08,0.37 0.33,0.66 0.57,0.95 0.03,0.03 0.21,0.12 0.17,0.06 -0.21,-0.31 -0.46,-0.5 -0.73,-0.76 0.16,0.15 0.31,0.28 0.5,0.39 0.01,0 0.1,0.04 0.09,0.01 -0.09,-0.39 -0.41,-0.64 -0.64,-0.95 -0.2,-0.27 -0.43,-0.52 -0.64,-0.78 0.05,0.05 0.3,0.4 0.42,0.53 0.02,0.02 0.19,0.1 0.18,0.08 -0.24,-0.51 -0.55,-0.98 -0.98,-1.34 -0.01,-0.01 -0.17,-0.1 -0.16,-0.06 0.1,0.3 0.26,0.55 0.39,0.83 0.01,0.05 0.2,0.14 0.19,0.11 -0.09,-0.45 -0.37,-1.02 -0.73,-1.31 -0.21,-0.17 -0.5,-0.36 -0.53,0.05 l 0.19,0.11 c -0.11,-0.41 0,-0.9 -0.41,-1.15 0,0 -0.1,-0.06 -0.11,-0.03 -0.03,0.17 -0.04,0.33 -0.06,0.5 l 0.2,0.1 c 0.01,-0.23 0.01,-0.45 0.01,-0.68 0,-0.05 -0.19,-0.14 -0.2,-0.1 0,0.19 0.01,0.37 0,0.56 l 0.19,0.12 c 0.02,-0.25 0.02,-0.46 -0.05,-0.7 -0.02,-0.05 -0.15,-0.15 -0.2,-0.11 -0.72,0.52 0.3,1.3 0.72,1.64 0.01,0.01 0.18,0.11 0.15,0.04 -0.21,-0.4 -0.46,-0.78 -0.82,-1.07 -0.02,-0.02 -0.21,-0.12 -0.14,-0.03 0.3,0.37 0.64,0.69 1.01,1 0.04,0.03 0.23,0.11 0.12,0.01 -0.2,-0.16 -0.39,-0.34 -0.58,-0.52 -0.13,-0.13 -0.56,-0.61 -0.11,-0.03 0.1,0.14 0.19,0.29 0.27,0.43 l 0.11,0.09 -0.13,-0.11 c -0.38,-0.32 -0.99,-0.91 -0.41,-1.33 l -0.19,-0.12 c 0.07,0.24 0.07,0.46 0.06,0.7 -0.01,0.06 0.19,0.13 0.19,0.11 0.02,-0.19 0,-0.38 0.01,-0.58 l -0.2,-0.1 c 0.01,0.23 0,0.45 -0.01,0.68 0,0.05 0.19,0.14 0.2,0.1 0.01,-0.16 0.03,-0.32 0.05,-0.48 l -0.11,-0.04 c 0.26,0.16 0.18,0.74 0.24,0.99 0.02,0.05 0.2,0.14 0.2,0.12 0.04,-0.43 0.42,0.07 0.52,0.21 0.16,0.26 0.29,0.53 0.36,0.82 l 0.19,0.11 c -0.12,-0.29 -0.29,-0.54 -0.39,-0.83 l -0.16,-0.06 c 0.4,0.33 0.69,0.78 0.91,1.24 l 0.18,0.08 c -0.25,-0.26 -0.44,-0.55 -0.73,-0.78 -0.01,-0.01 -0.19,-0.1 -0.15,-0.05 0.27,0.37 0.57,0.7 0.83,1.06 0.06,0.08 0.14,0.16 0.21,0.24 0.13,0.13 0.24,0.28 0.32,0.45 -0.14,-0.05 -0.25,-0.14 -0.34,-0.25 -0.03,-0.02 -0.21,-0.11 -0.17,-0.06 0.19,0.24 0.41,0.45 0.6,0.69 0.17,0.21 -0.05,-0.2 -0.07,-0.22 -0.08,-0.12 -0.34,-0.67 0.03,-0.23 0.16,0.2 0.46,0.45 0.07,0.17 -0.35,-0.25 -0.73,-0.48 -0.92,-0.88 -0.15,-0.3 0.51,0.38 0.56,0.46 0.34,0.5 -0.23,-0.16 -0.22,-0.15 -0.1,-0.13 -0.18,-0.27 -0.27,-0.4 -0.08,-0.13 -0.15,-0.26 -0.23,-0.39 0.14,0.24 0.37,0.44 0.53,0.66 0.2,0.27 0.39,0.53 0.62,0.77 0.02,0.02 0.21,0.12 0.17,0.06 -0.14,-0.23 -0.31,-0.43 -0.48,-0.64 -0.17,-0.2 -0.31,-0.39 -0.43,-0.63 0.21,0.02 0.37,0.11 0.48,0.27 0.1,0.1 0.19,0.22 0.27,0.33 0.08,0.11 0.16,0.23 0.24,0.35 0.09,0.13 0.38,0.37 0.11,0.02 -0.26,-0.33 -0.55,-0.64 -0.84,-0.95 -0.03,-0.03 -0.23,-0.13 -0.16,-0.05 0.44,0.49 1.01,1.5 1.78,1.43 0.03,0 0,-0.04 -0.01,-0.04 -0.22,-0.26 -0.47,-0.48 -0.73,-0.71 -0.2,-0.17 -0.39,-0.34 -0.57,-0.53 -0.09,-0.12 -0.07,-0.11 0.07,0.02 0.12,0.11 0.23,0.23 0.34,0.34 0.15,0.16 0.27,0.33 0.39,0.5 0.03,0.09 0.09,0.16 0.18,0.2 -0.12,-0.1 -0.23,-0.21 -0.34,-0.31 -0.34,-0.33 -0.65,-0.7 -0.85,-1.13 l -0.14,-0.04 c 0.41,0.3 0.8,0.65 0.99,1.14 l -0.13,-0.07 c -0.11,-0.12 -0.21,-0.24 -0.31,-0.36 -0.08,-0.1 -0.17,-0.2 -0.25,-0.3 -0.23,-0.27 -0.47,-0.56 -0.84,-0.64 -0.02,0 -0.02,0.01 -0.01,0.03 0.35,0.64 1,1.06 1.32,1.72 l 0.18,0.08 c -0.28,-0.31 -0.55,-0.63 -0.82,-0.95 -0.13,-0.16 -0.27,-0.32 -0.41,-0.47 0.15,0.16 0.34,0.3 0.49,0.47 0.13,0.14 0.23,0.3 0.34,0.45 0.09,0.14 0.42,0.77 -0.07,0.29 -0.24,-0.24 -0.44,-0.52 -0.61,-0.81 -0.34,-0.6 0.44,0.18 0.56,0.34 0.08,0.12 0.15,0.25 0.19,0.39 -0.13,0.07 -0.21,0 -0.26,-0.19 -0.07,-0.11 -0.13,-0.23 -0.19,-0.36 -0.17,-0.39 0.39,0.3 0.34,0.23 0.15,0.18 0.26,0.39 0.38,0.58 0.18,0.29 0.35,0.57 0.56,0.83 0.02,0.02 0.19,0.1 0.18,0.07 -0.21,-0.53 -0.54,-1.02 -0.73,-1.56 l -0.18,-0.08 c 0.6,0.61 1.12,1.28 1.39,2.1 l 0.18,0.08 c -0.39,-0.43 -0.72,-0.93 -0.9,-1.49 -0.14,-0.41 0.47,0.4 0.52,0.5 0.13,0.21 0.26,0.41 0.42,0.6 0.02,0.02 0.2,0.11 0.17,0.06 -0.14,-0.22 -0.29,-0.44 -0.44,-0.65 -0.06,-0.13 -0.15,-0.22 -0.28,-0.28 0.12,0.1 0.23,0.2 0.33,0.31 0.38,0.37 0.71,0.81 0.9,1.3 l 0.18,0.09 -0.32,-0.45 c -0.06,-0.09 -0.55,-0.74 -0.17,-0.28 0.23,0.27 0.41,0.55 0.69,0.78 0.01,0.01 0.19,0.1 0.15,0.05 -0.24,-0.37 -0.53,-0.69 -0.85,-1 -0.13,-0.13 -0.27,-0.26 -0.42,-0.38 -0.2,-0.09 -0.18,-0.06 0.08,0.1 0.15,0.13 0.29,0.27 0.43,0.41 0.1,0.11 0.18,0.22 0.25,0.33 -0.26,0.04 -0.47,-0.06 -0.62,-0.31 -0.22,-0.21 -0.42,-0.46 -0.6,-0.71 -0.02,0.12 0.02,0.22 0.13,0.3 l 0.25,0.34 c 0.17,0.23 0.35,0.45 0.56,0.66 0.02,0.02 0.2,0.11 0.17,0.06 -0.31,-0.42 -0.69,-0.79 -1.03,-1.18 -0.19,-0.23 -0.4,-0.41 -0.67,-0.52 -0.01,0 -0.07,-0.03 -0.07,0 0.22,0.78 0.91,1.58 1.46,2.15 0.02,0.03 0.2,0.12 0.17,0.07 -0.45,-0.65 -1.04,-1.16 -1.58,-1.73 -0.03,-0.03 -0.23,-0.13 -0.16,-0.05 0.3,0.34 0.58,0.71 0.93,1.02 0.09,0.08 0.55,0.39 0.09,-0.01 -0.24,-0.2 -0.44,-0.44 -0.61,-0.7 -0.39,-0.56 0.23,0.11 0.33,0.25 0.14,0.18 0.26,0.38 0.4,0.56 0.19,0.26 0.41,0.46 0.68,0.62 0.02,0.02 0.16,0.08 0.1,0 -0.57,-0.67 -1.12,-1.35 -1.73,-1.98 -0.02,-0.02 -0.2,-0.13 -0.17,-0.07 0.39,0.7 0.98,1.31 1.47,1.93 0.26,0.32 0.55,0.59 0.93,0.73 0.02,0 0.05,0 0.04,-0.03 -0.54,-0.86 -1.4,-1.35 -2.18,-1.97 -0.13,-0.1 -0.26,-0.22 -0.37,-0.35 -0.34,-0.37 -0.24,-0.37 0.3,0 0.11,0.1 0.21,0.21 0.32,0.31 0.2,0.16 0.4,0.33 0.58,0.5 0.11,0.11 0.2,0.22 0.28,0.35 -0.01,-0.01 -0.55,-0.32 -0.66,-0.42 -0.36,-0.32 -0.73,-0.63 -1.01,-1.02 0.19,0.03 0.36,0.12 0.49,0.26 0.09,0.09 0.18,0.17 0.27,0.26 0.19,0.16 0.37,0.33 0.56,0.5 0.22,0.21 0.43,0.42 0.61,0.67 0.16,0.2 0.08,0.2 -0.24,-0.02 -0.13,-0.14 -0.25,-0.28 -0.37,-0.42 -0.29,-0.36 -0.55,-0.71 -0.9,-1.02 -0.02,-0.02 -0.21,-0.11 -0.14,-0.03 0.27,0.3 0.56,0.56 0.84,0.85 0.08,0.08 0.16,0.15 0.25,0.23 0.12,0.12 0.87,0.97 0.31,0.41 -0.15,-0.16 -0.28,-0.35 -0.41,-0.53 l -0.09,-0.14 c -0.03,-0.11 -0.1,-0.16 -0.2,-0.14 0.36,0.42 0.71,0.86 1.05,1.31 0.02,0.02 0.2,0.12 0.19,0.09 -0.07,-0.19 -0.15,-0.37 -0.25,-0.55 -0.06,-0.12 -0.13,-0.23 -0.19,-0.34 0.02,0.03 -0.32,-0.45 -0.17,-0.29 0.44,0.45 0.68,1.09 1.02,1.62 0.02,0.04 0.19,0.1 0.19,0.09 -0.25,-0.5 -0.47,-1.01 -0.76,-1.49 -0.04,-0.18 -0.1,-0.22 -0.17,-0.11 0.12,0.15 0.22,0.32 0.32,0.49 0.2,0.34 0.34,0.71 0.48,1.07 l 0.19,0.11 c -0.33,-0.7 -0.59,-1.43 -1.11,-2.01 -0.02,-0.02 -0.19,-0.11 -0.18,-0.08 0.1,0.35 0.28,0.67 0.41,1.01 0.1,0.28 0.2,0.54 0.38,0.79 0.01,0.02 0.19,0.13 0.19,0.09 -0.06,-0.43 -0.25,-0.81 -0.46,-1.19 -0.02,-0.13 -0.1,-0.18 -0.22,-0.17 0.09,0.17 0.17,0.35 0.25,0.53 0.13,0.3 0.24,0.61 0.36,0.92 0.02,0.05 0.2,0.12 0.19,0.1 -0.18,-0.59 -0.52,-1.1 -0.75,-1.67 l -0.16,-0.06 c 0.58,0.49 0.83,1.2 1.15,1.87 0.03,0.05 0.2,0.12 0.2,0.1 -0.24,-0.6 -0.62,-1.13 -0.77,-1.76 l -0.18,-0.08 c 0.55,0.63 0.83,1.42 1.12,2.19 0.02,0.06 0.2,0.13 0.2,0.11 -0.19,-0.63 -0.67,-1.13 -0.78,-1.78 l -0.16,-0.06 c 0.56,0.5 0.76,1.26 1.3,1.78 0.01,0.01 0.18,0.12 0.17,0.08 -0.15,-0.56 -0.51,-1.02 -0.9,-1.43 -0.02,-0.02 -0.21,-0.12 -0.17,-0.06 0.33,0.62 0.81,1.13 1.25,1.67 0.02,0.03 0.21,0.14 0.18,0.08 -0.28,-0.54 -0.64,-1.06 -1.14,-1.43 -0.01,-0.01 -0.16,-0.1 -0.13,-0.03 0.31,0.63 0.97,1.02 1.17,1.71 l 0.17,0.08 c -0.43,-0.49 -0.75,-1.05 -1.19,-1.53 -0.03,-0.03 -0.23,-0.13 -0.16,-0.05 0.46,0.51 0.81,1.07 1.05,1.72 l 0.19,0.09 c -0.4,-0.57 -0.81,-1.13 -1.07,-1.77 l -0.19,-0.09 c 0.48,0.68 0.81,1.45 1.09,2.24 l 0.19,0.09 c -0.23,-0.34 -0.45,-0.7 -0.67,-1.05 -0.11,-0.17 -0.22,-0.35 -0.33,-0.52 -0.08,-0.11 -0.15,-0.23 -0.23,-0.34 -0.04,-0.17 -0.1,-0.21 -0.19,-0.12 0.51,0.66 0.78,1.46 1.38,2.05 0.02,0.02 0.19,0.11 0.18,0.08 -0.16,-0.4 -0.47,-0.67 -0.75,-0.98 -0.38,-0.43 -0.76,-0.85 -1.18,-1.23 -0.02,-0.01 -0.19,-0.1 -0.15,-0.05 0.37,0.58 0.86,1.07 1.39,1.5 0.03,0.02 0.22,0.11 0.14,0.03 -0.33,-0.35 -0.67,-0.7 -0.98,-1.09 -0.03,-0.03 -0.41,-0.49 -0.08,-0.22 0.25,0.2 0.45,0.48 0.64,0.74 0.1,0.14 0.19,0.28 0.28,0.43 0.07,0.1 0.5,0.54 0.22,0.16 -0.3,-0.42 -0.58,-0.85 -0.79,-1.33 l -0.19,-0.09 c 0.34,0.48 0.55,1.01 0.77,1.54 0.02,0.04 0.2,0.14 0.2,0.1 -0.06,-0.37 -0.25,-0.71 -0.3,-1.09 l -0.19,-0.09 c 0.25,0.39 0.34,0.81 0.45,1.25 l 0.19,0.1 c -0.12,-0.45 -0.37,-0.85 -0.41,-1.32 l -0.18,-0.1 c 0.28,0.46 0.38,0.99 0.58,1.48 0.02,0.06 0.2,0.13 0.19,0.11 -0.15,-0.5 -0.46,-0.93 -0.55,-1.45 l -0.17,-0.08 c 0.38,0.41 0.67,0.87 0.99,1.32 0.03,0.04 0.22,0.13 0.19,0.08 -0.23,-0.36 -0.55,-0.68 -0.63,-1.11 l -0.19,-0.09 c 0.4,0.55 0.75,1.13 1.12,1.7 0.03,0.04 0.21,0.12 0.18,0.08 -0.2,-0.33 -0.39,-0.65 -0.66,-0.94 -0.02,-0.02 -0.2,-0.11 -0.17,-0.06 0.22,0.32 0.55,0.59 0.6,1 l 0.16,0.06 c -0.33,-0.29 -0.56,-0.68 -0.85,-1.01 -0.02,-0.02 -0.19,-0.1 -0.18,-0.07 0.14,0.31 0.35,0.57 0.56,0.85 0.07,0.1 0.36,0.38 0.1,-0.01 -0.16,-0.24 -0.3,-0.5 -0.45,-0.75 -0.01,-0.03 -0.19,-0.14 -0.18,-0.09 0.02,0.36 0.1,0.71 0.05,1.08 l 0.2,0.11 c -0.05,-0.36 -0.1,-0.7 -0.18,-1.05 -0.01,-0.05 -0.2,-0.14 -0.2,-0.11 0.04,0.42 0.12,0.82 0.23,1.22 0.01,0.05 0.2,0.14 0.19,0.1 -0.03,-0.39 -0.21,-0.73 -0.24,-1.12 l -0.17,-0.08 c 0.3,0.33 0.59,0.75 0.63,1.2 l 0.18,0.08 c -0.3,-0.33 -0.46,-0.73 -0.59,-1.14 l -0.19,-0.11 c 0.1,0.25 0.17,0.5 0.24,0.76 0.01,0.04 0.19,0.14 0.19,0.11 0.04,-0.27 0.01,-0.53 0.06,-0.8 l -0.19,-0.11 c 0.16,0.4 0.21,0.83 0.26,1.25 0,0.05 0.19,0.13 0.19,0.11 0.03,-0.28 -0.01,-0.56 -0.01,-0.85 l -0.19,-0.1 c 0.05,0.37 0.04,0.73 0.07,1.1 0,0.05 0.19,0.14 0.19,0.11 0.05,-0.31 0.05,-0.61 0.21,-0.89 l -0.2,-0.11 c 0.06,0.24 0.05,0.5 -0.12,0.7 l 0.19,0.1 -0.06,-0.1 c -0.03,-0.04 -0.21,-0.12 -0.18,-0.08 z" />
      <path
         style="fill:#ffffff"
         inkscape:connector-curvature="0"
         id="path179"
         d="m 16.82615,1040.3374 c 0.29,0.22 0.4,0.82 0.6,1.14 0.14,0.22 0.32,0.41 0.54,0.55 0.03,0.02 0.13,0.06 0.13,-0.01 0.05,-0.61 -0.54,-1.81 -1.25,-1.86 -0.03,0 -0.06,0.02 -0.05,0.05 0.12,0.61 0.48,1.15 0.96,1.54 0.06,0.05 0.21,0.07 0.13,-0.04 -0.43,-0.59 -0.83,-1.2 -1.37,-1.69 -0.02,-0.02 -0.18,-0.09 -0.15,0.01 0.24,0.74 0.83,1.36 1.49,1.77 0.06,0.03 0.19,0.02 0.11,-0.07 -0.48,-0.49 -0.89,-1.02 -1.47,-1.39 -0.06,-0.04 -0.19,-0.03 -0.11,0.06 0.49,0.56 1.02,1.05 1.53,1.59 -0.27,-0.29 -0.47,-0.57 -0.7,-0.88 -0.17,-0.22 -0.33,-0.38 -0.58,-0.5 -0.06,-0.03 -0.13,-0.02 -0.1,0.06 0.33,0.68 0.91,1.12 1.53,1.52 l -0.03,-0.12 c -0.55,0.07 -1.04,-1.07 -1.35,-1.42 -0.03,-0.05 -0.23,-0.1 -0.16,0 0.26,0.4 0.52,0.84 0.99,1.01 0.03,0.02 0.13,0.03 0.1,-0.03 -0.09,-0.24 -0.22,-0.4 -0.38,-0.59 -0.3,-0.32 -0.53,-0.69 -0.83,-1.01 -0.04,-0.04 -0.23,-0.11 -0.17,0.01 0.17,0.34 0.35,0.66 0.57,0.97 l 0.17,-0.01 c -0.34,-0.36 -0.54,-0.8 -0.78,-1.23 -0.02,-0.05 -0.22,-0.14 -0.18,-0.04 0.11,0.33 0.22,0.65 0.34,0.98 0.02,0.06 0.22,0.15 0.19,0.05 -0.12,-0.4 -0.28,-0.78 -0.49,-1.15 -0.02,-0.04 -0.22,-0.14 -0.19,-0.03 0.1,0.31 0.2,0.6 0.37,0.87 0.03,0.05 0.22,0.14 0.19,0.04 -0.11,-0.32 -0.19,-0.61 -0.42,-0.86 -0.03,-0.03 -0.21,-0.12 -0.18,-0.01 0.05,0.17 0.11,0.32 0.18,0.48 0.03,0.05 0.17,0.13 0.19,0.05 0.08,-0.26 0.12,-0.49 0.04,-0.75 -0.02,-0.05 -0.21,-0.16 -0.2,-0.07 0.03,0.31 0.12,0.52 0.33,0.75 0.39,0.41 0.85,0.76 1.25,1.16 0.06,0.06 0.25,0.09 0.15,-0.02 -0.35,-0.38 -0.68,-0.76 -0.95,-1.2 l -0.14,0.02 c 0.53,0.5 0.96,1.08 1.54,1.54 0.06,0.04 0.22,0.06 0.13,-0.05 -0.44,-0.5 -0.82,-1.05 -1.29,-1.54 -0.03,-0.04 -0.24,-0.1 -0.16,0.01 0.28,0.39 0.64,0.7 1,1.01 0.14,0.13 0.28,0.26 0.4,0.39 -0.08,-0.08 -0.18,-0.16 -0.26,-0.26 l -0.11,-0.11 -0.15,-0.13 c -0.12,-0.05 -0.18,-0.13 -0.2,-0.25 l 0.11,-0.07 c -0.39,-0.33 -0.69,-0.76 -0.96,-1.2 l -0.17,0.01 c 0.12,0.13 0,0.37 -0.01,0.37 -0.01,0 0.01,-0.05 0.06,-0.16 0.07,-0.17 0.19,-0.32 0.29,-0.46 0.15,-0.22 0.36,-0.53 0.61,-0.65 l -0.19,-0.11 c -0.14,0.68 -0.76,1.23 -1.14,1.79 -0.05,0.07 0.14,0.19 0.19,0.12 0.38,-0.49 0.68,-1.03 0.99,-1.57 0.04,-0.07 -0.13,-0.17 -0.18,-0.13 -0.35,0.26 -0.59,0.64 -0.99,0.82 -0.01,0.01 -0.02,0.02 -0.02,0.03 -0.01,0.38 0.47,-0.01 0.54,-0.09 0.13,-0.12 0.86,-0.74 0.72,-0.94 -0.03,-0.04 -0.1,-0.07 -0.15,-0.06 -0.16,0.02 -0.35,0.26 -0.45,0.36 -0.07,0.07 0.11,0.19 0.17,0.14 0.3,-0.25 0.61,-0.5 0.91,-0.77 0.07,-0.06 -0.11,-0.18 -0.17,-0.14 -0.31,0.21 -0.45,0.5 -0.86,0.56 l 0.17,0.14 c 0.26,-0.53 0.77,-0.95 1.31,-1.15 l -0.18,-0.13 c -0.53,0.69 -1.36,1.1 -2.01,1.68 l 0.17,0.14 c 0.74,-0.69 1.52,-1.33 2.26,-2.02 l -0.18,-0.13 c -0.46,0.58 -0.97,1.13 -1.5,1.64 l 0.18,0.13 c 0.25,-0.32 0.51,-0.63 0.77,-0.95 0.18,-0.23 0.07,-0.5 0.35,-0.68 l -0.19,-0.11 c -0.13,0.57 -0.26,1.11 -0.83,1.39 l 0.17,0.14 c 0.44,-0.34 0.89,-0.63 1.38,-0.91 l -0.18,-0.13 c -0.26,0.33 -0.58,0.58 -0.92,0.83 -0.3,0.23 -0.55,0.51 -0.95,0.56 l 0.15,0.15 c 0.36,-0.32 0.74,-0.59 1.12,-0.89 0.31,-0.25 0.59,-0.51 0.96,-0.66 l -0.18,-0.13 c -0.36,0.72 -1.3,1.35 -1.93,1.82 -0.07,0.06 0.11,0.18 0.17,0.15 0.57,-0.28 0.91,-0.8 1.35,-1.24 l -0.19,-0.12 c -0.25,0.3 -0.53,0.56 -0.8,0.83 -0.21,0.21 -0.39,0.53 -0.72,0.54 l 0.17,0.14 c 0.4,-0.87 1.45,-1.43 2.18,-1.98 l -0.17,-0.15 c -0.39,0.33 -0.73,0.77 -1.22,0.96 l 0.18,0.14 c 0.25,-0.57 0.81,-0.91 1.25,-1.33 0.05,-0.05 -0.13,-0.17 -0.18,-0.13 -0.39,0.28 -0.69,0.67 -1.13,0.87 l 0.18,0.13 c 0.27,-0.54 1.05,-0.69 1.41,-1.14 0.02,-0.03 -0.02,-0.08 -0.04,-0.09 -0.35,-0.25 -0.64,0.49 -0.84,0.59 l 0.18,0.11 c 0.01,-0.2 -0.05,-0.36 0.15,-0.52 l -0.18,-0.13 c -0.11,0.14 -0.02,0.25 -0.13,0.39 -0.05,0.06 0.13,0.17 0.18,0.13 0.24,-0.21 0.4,-0.35 0.74,-0.32 l -0.14,-0.14 c -0.09,0.25 -0.31,0.4 -0.54,0.51 l 0.17,0.14 c 0.27,-0.23 0.61,-0.34 0.85,-0.61 0.05,-0.06 -0.12,-0.15 -0.17,-0.14 -0.36,0.1 -0.63,0.37 -0.93,0.58 -0.08,0.05 0.1,0.17 0.17,0.14 0.29,-0.14 0.56,-0.3 0.86,-0.44 0.08,-0.04 -0.1,-0.17 -0.17,-0.14 -0.27,0.09 -0.74,0.35 -1.03,0.18 l 0.05,0.12 c 0.34,-0.19 0.71,-0.28 1.08,-0.34 0.11,-0.02 -0.06,-0.15 -0.11,-0.16 -0.39,-0.04 -0.79,0 -1.18,-0.07 l 0.1,0.16 c 0.42,0.06 0.85,0.11 1.28,0.2 0.11,0.02 0.07,-0.08 0,-0.12 -0.36,-0.21 -0.74,-0.37 -1.16,-0.47 -0.14,-0.03 -0.04,0.13 0.05,0.15 0.39,0.09 0.78,0.12 1.18,0.14 l -0.11,-0.15 c -0.26,0.04 -0.48,0.05 -0.73,-0.03 l 0.07,0.15 c 0.25,0.03 0.48,0.15 0.71,0.23 l -0.04,-0.14 c -1.13,0.03 -2.49,0.14 -3.51,0.66 l 0.17,0.08 c -0.27,-0.49 1.29,-0.46 1.49,-0.46 0.57,-0.01 1.17,0.07 1.73,0 0.38,-0.05 -0.35,-0.35 -0.4,-0.36 -0.08,-0.03 -0.46,0.03 -0.35,0.03 -0.15,0 -0.32,-0.1 -0.47,-0.15 -0.26,-0.08 -0.49,-0.1 -0.76,-0.09 -0.7,0.03 -1.38,0.19 -2.08,0.21 -0.13,0 0,0.14 0.06,0.15 0.95,0.2 1.84,0.14 2.79,0.19 l -0.11,-0.15 c -0.99,0.2 -2.08,0.1 -3.09,0.16 -0.1,0.01 0.06,0.14 0.09,0.15 0.6,0.21 1.21,0.3 1.84,0.29 0.46,0 0.91,-0.08 1.36,-0.07 l -0.11,-0.15 c -1.19,0.15 -2.39,0.12 -3.58,-0.01 l 0.1,0.16 c 1.3,0.12 2.62,-0.05 3.92,-0.14 l -0.13,-0.16 c -1.35,0.16 -2.7,0.42 -4.05,0.38 -0.14,-0.01 0.02,0.14 0.09,0.15 1.2,0.16 2.39,0.15 3.6,0.05 l -0.13,-0.16 c -1.32,0.15 -2.67,0.02 -3.98,-0.15 l 0.12,0.15 c 0.84,-0.05 1.67,0.1 2.51,0.02 0.71,-0.07 1.46,-0.19 2.13,-0.44 0.08,-0.03 -0.08,-0.14 -0.11,-0.15 -1.12,-0.33 -2.3,0.27 -3.43,0.17 l 0.11,0.15 c 0.83,-0.07 1.67,-0.12 2.51,-0.14 0.17,-0.01 0.35,-0.01 0.52,0 0.23,0.01 -0.06,-0.02 0.02,-0.09 -0.06,0.05 -0.21,0.07 -0.28,0.05 -0.25,-0.06 -0.52,-0.02 -0.77,0 -0.57,0.04 -1.11,0 -1.67,-0.15 l 0.09,0.14 c 0.98,-0.17 1.95,-0.16 2.93,-0.29 l -0.14,-0.16 c -0.97,0.19 -1.96,0.19 -2.95,0.11 l 0.09,0.16 c 0.73,-0.01 1.57,0.07 2.29,-0.1 0.11,-0.02 -0.05,-0.14 -0.09,-0.15 -0.47,-0.15 -1.02,-0.03 -1.51,-0.07 l 0.12,0.16 c 0.57,-0.04 1.15,0.02 1.71,-0.02 0.11,0 -0.04,-0.14 -0.08,-0.15 -0.41,-0.07 -0.84,-0.04 -1.25,-0.01 -0.1,0.01 0.06,0.15 0.12,0.15 0.45,0.03 1.03,0.11 1.47,-0.01 0.11,-0.03 -0.06,-0.16 -0.11,-0.16 -0.21,-0.01 -0.45,0.14 -0.63,0.22 -0.33,0.16 -0.98,0.64 -1.36,0.55 l 0.09,0.15 c 0.76,-0.11 1.42,-0.73 2.19,-0.77 l -0.17,-0.12 c -0.14,0.22 -0.32,0.29 -0.52,0.21 l 0.11,0.15 c 0.28,-0.11 0.54,-0.02 0.83,-0.06 0.1,-0.01 -0.06,-0.16 -0.13,-0.15 -0.47,0.05 -0.94,0.14 -1.41,0.19 -0.86,0.1 -1.72,0.03 -2.58,0.11 -0.1,0.01 0.06,0.15 0.11,0.16 1,0.05 1.96,-0.36 2.95,-0.28 0.13,0.01 -0.02,-0.15 -0.09,-0.16 -0.99,-0.08 -1.96,0.33 -2.95,0.28 l 0.12,0.16 c 0.85,-0.08 1.71,-0.03 2.58,-0.12 0.47,-0.04 0.93,-0.13 1.4,-0.19 l -0.13,-0.15 c -0.33,0.04 -0.56,-0.06 -0.87,0.06 -0.08,0.03 0.07,0.14 0.1,0.15 0.35,0.07 0.67,0.18 0.69,-0.27 0,-0.08 -0.11,-0.13 -0.17,-0.12 -0.78,0.04 -1.44,0.66 -2.2,0.77 -0.1,0.01 0.05,0.14 0.09,0.15 0.28,0.06 0.58,-0.12 0.82,-0.23 0.32,-0.15 0.85,-0.56 1.22,-0.53 l -0.11,-0.16 c -0.44,0.12 -0.99,0.04 -1.43,0.02 l 0.11,0.15 c 0.37,-0.02 0.78,-0.06 1.15,0.01 l -0.09,-0.15 c -0.57,0.04 -1.15,-0.02 -1.72,0.01 -0.1,0.01 0.06,0.15 0.12,0.16 0.45,0.03 1.02,-0.08 1.45,0.06 l -0.09,-0.15 c -0.7,0.17 -1.52,0.09 -2.24,0.09 -0.13,0 0.02,0.15 0.09,0.16 1,0.08 2.01,0.08 3,-0.11 0.1,-0.02 -0.07,-0.17 -0.14,-0.16 -0.97,0.14 -1.95,0.12 -2.92,0.3 -0.11,0.02 0.05,0.14 0.09,0.15 0.5,0.14 0.99,0.2 1.5,0.18 0.23,-0.01 0.45,-0.03 0.67,-0.04 0.16,0 0.31,0.07 0.46,0.03 0.27,-0.06 0.31,-0.23 0.01,-0.27 -0.56,-0.08 -1.18,0.01 -1.73,0.04 -0.48,0.03 -0.95,0.06 -1.42,0.1 -0.11,0.01 0.06,0.15 0.11,0.15 1.11,0.1 2.29,-0.49 3.39,-0.17 l -0.11,-0.15 c -0.67,0.25 -1.4,0.36 -2.1,0.43 -0.83,0.09 -1.67,-0.06 -2.51,-0.01 -0.1,0.01 0.07,0.15 0.12,0.15 1.32,0.18 2.68,0.31 4.01,0.16 0.11,-0.02 -0.06,-0.16 -0.13,-0.16 -1.2,0.11 -2.37,0.11 -3.56,-0.04 l 0.09,0.15 c 1.37,0.05 2.73,-0.21 4.09,-0.37 0.11,-0.01 -0.06,-0.16 -0.13,-0.16 -1.29,0.1 -2.59,0.26 -3.89,0.14 -0.12,-0.01 0.02,0.15 0.1,0.16 1.2,0.13 2.42,0.16 3.62,0 0.1,-0.01 -0.06,-0.15 -0.12,-0.15 -0.36,-0.02 -0.73,0.04 -1.1,0.06 -0.7,0.04 -1.39,-0.05 -2.05,-0.28 l 0.09,0.15 c 1,-0.05 2.09,0.05 3.08,-0.16 0.11,-0.02 -0.06,-0.15 -0.11,-0.15 -0.93,-0.05 -1.81,0.01 -2.74,-0.19 l 0.07,0.15 c 0.51,-0.01 1.02,-0.09 1.53,-0.15 0.37,-0.05 0.75,-0.1 1.12,-0.02 0.24,0.06 0.43,0.17 0.67,0.21 0.2,0.03 0.36,-0.04 0.55,0.04 0.04,0.02 0,-0.03 -0.1,-0.02 -0.25,0.02 -0.52,0.01 -0.77,0 -0.32,-0.01 -2.86,-0.18 -2.43,0.59 0.03,0.05 0.12,0.11 0.18,0.08 0.99,-0.5 2.33,-0.61 3.43,-0.65 0.12,0 0.02,-0.12 -0.04,-0.14 -0.28,-0.1 -0.52,-0.22 -0.82,-0.25 -0.13,-0.02 0.02,0.13 0.07,0.15 0.28,0.08 0.54,0.08 0.82,0.03 0.11,-0.02 -0.06,-0.15 -0.11,-0.16 -0.39,-0.02 -0.76,-0.04 -1.14,-0.13 l 0.05,0.15 c 0.37,0.08 0.72,0.23 1.05,0.42 l 0.01,-0.13 c -0.44,-0.09 -0.88,-0.14 -1.33,-0.21 -0.12,-0.01 0.03,0.15 0.1,0.16 0.39,0.06 0.78,0.03 1.17,0.07 l -0.11,-0.16 c -0.39,0.07 -0.77,0.16 -1.12,0.36 -0.05,0.03 0.03,0.1 0.06,0.12 0.4,0.24 0.85,0 1.26,-0.14 l -0.17,-0.14 c -0.29,0.13 -0.57,0.3 -0.86,0.44 l 0.17,0.14 c 0.29,-0.2 0.55,-0.47 0.9,-0.57 l -0.17,-0.13 c -0.23,0.26 -0.56,0.36 -0.82,0.59 -0.08,0.06 0.1,0.17 0.17,0.14 0.24,-0.12 0.47,-0.27 0.56,-0.53 0.03,-0.07 -0.08,-0.13 -0.14,-0.14 -0.37,-0.03 -0.55,0.1 -0.82,0.34 l 0.18,0.13 c 0.11,-0.14 0.02,-0.25 0.13,-0.39 0.05,-0.06 -0.13,-0.18 -0.18,-0.13 -0.22,0.17 -0.17,0.3 -0.18,0.57 0,0.08 0.12,0.15 0.19,0.12 0.28,-0.13 0.31,-0.44 0.6,-0.6 0.13,-0.06 -0.07,-0.17 -0.16,-0.1 -0.1,0.07 -0.2,0.14 -0.29,0.21 -0.32,0.23 -0.86,0.51 -1.04,0.87 -0.04,0.08 0.12,0.16 0.18,0.14 0.44,-0.2 0.74,-0.59 1.13,-0.87 l -0.18,-0.14 c -0.44,0.42 -1,0.76 -1.25,1.33 -0.04,0.08 0.12,0.15 0.18,0.13 0.49,-0.19 0.83,-0.64 1.22,-0.96 0.07,-0.06 -0.11,-0.19 -0.17,-0.15 -0.73,0.56 -1.8,1.13 -2.21,2.01 -0.03,0.08 0.11,0.14 0.17,0.14 0.27,-0.01 0.45,-0.23 0.62,-0.42 0.31,-0.33 0.66,-0.64 0.95,-0.99 0.05,-0.06 -0.13,-0.18 -0.19,-0.12 -0.43,0.43 -0.77,0.94 -1.33,1.21 l 0.17,0.15 c 0.41,-0.31 0.78,-0.64 1.16,-0.97 0.3,-0.27 0.61,-0.51 0.79,-0.88 0.04,-0.08 -0.12,-0.15 -0.18,-0.13 -0.37,0.15 -0.66,0.4 -0.96,0.66 -0.37,0.3 -0.76,0.57 -1.11,0.89 -0.08,0.06 0.09,0.15 0.15,0.15 0.35,-0.05 0.61,-0.27 0.88,-0.49 0.36,-0.3 0.74,-0.56 1.04,-0.94 0.05,-0.06 -0.13,-0.16 -0.18,-0.13 -0.49,0.28 -0.94,0.57 -1.38,0.91 -0.07,0.06 0.11,0.18 0.17,0.14 0.58,-0.29 0.72,-0.85 0.87,-1.45 0.01,-0.06 -0.14,-0.15 -0.19,-0.11 -0.25,0.16 -0.21,0.31 -0.3,0.58 -0.12,0.36 -0.6,0.77 -0.85,1.07 -0.04,0.06 0.14,0.18 0.18,0.13 0.55,-0.52 1.06,-1.07 1.53,-1.66 0.05,-0.06 -0.13,-0.17 -0.18,-0.13 -0.74,0.69 -1.52,1.33 -2.26,2.02 -0.07,0.06 0.12,0.19 0.17,0.14 0.66,-0.58 1.49,-1 2.03,-1.7 0.06,-0.07 -0.13,-0.15 -0.18,-0.13 -0.55,0.2 -1.07,0.63 -1.33,1.17 -0.04,0.07 0.1,0.14 0.16,0.13 0.43,-0.06 0.54,-0.33 0.89,-0.57 l -0.17,-0.14 c -0.3,0.27 -0.61,0.52 -0.91,0.77 l 0.17,0.14 c 0.09,-0.08 0.19,-0.17 0.29,-0.26 0.17,-0.14 -0.05,-0.17 -0.06,-0.16 -0.1,0.18 -0.26,0.33 -0.39,0.48 -0.16,0.18 -0.33,0.36 -0.53,0.5 -0.02,0.02 -0.04,0.03 -0.06,0.04 l 0.25,0.04 c 0.09,-0.06 0.17,-0.12 0.25,-0.2 0.21,-0.18 0.37,-0.39 0.6,-0.56 l -0.18,-0.13 c -0.31,0.54 -0.61,1.08 -0.99,1.57 l 0.19,0.12 c 0.39,-0.57 1.01,-1.12 1.16,-1.83 0.01,-0.07 -0.13,-0.14 -0.19,-0.11 -0.29,0.14 -1.16,1.09 -0.99,1.43 0.09,0.18 0.31,0.19 0.48,0.16 0.31,-0.06 -0.03,-0.48 -0.12,-0.58 -0.04,-0.04 -0.23,-0.1 -0.16,0.01 0.29,0.47 0.61,0.92 1.03,1.28 0.08,0.07 0.23,0.03 0.11,-0.07 -0.15,-0.13 -0.26,-0.2 -0.45,-0.15 -0.05,0.02 -0.03,0.06 -0.01,0.09 0.24,0.33 0.58,0.56 0.86,0.87 0.15,0.16 0.31,0.29 0.52,0.37 0.04,0.01 0.15,0.01 0.1,-0.06 -0.47,-0.64 -1.17,-1.05 -1.63,-1.69 l -0.17,0.01 c 0.47,0.48 0.85,1.03 1.29,1.54 l 0.13,-0.05 c -0.57,-0.45 -1.01,-1.03 -1.54,-1.53 -0.04,-0.04 -0.21,-0.08 -0.15,0.02 0.28,0.45 0.62,0.85 0.98,1.24 l 0.15,-0.02 c -0.2,-0.2 -0.39,-0.41 -0.6,-0.61 -0.38,-0.36 -0.87,-0.61 -0.93,-1.19 l -0.2,-0.08 c 0.08,0.26 0.04,0.48 -0.04,0.72 l 0.19,0.05 c -0.07,-0.14 -0.12,-0.28 -0.16,-0.44 l -0.17,-0.01 c 0.21,0.23 0.28,0.49 0.37,0.78 l 0.19,0.03 c -0.16,-0.26 -0.26,-0.54 -0.35,-0.84 l -0.19,-0.03 c 0.2,0.35 0.36,0.72 0.48,1.11 l 0.19,0.05 c -0.11,-0.32 -0.22,-0.65 -0.34,-0.97 l -0.19,-0.04 c 0.25,0.45 0.46,0.9 0.8,1.28 0.04,0.04 0.24,0.1 0.17,-0.01 -0.22,-0.3 -0.4,-0.63 -0.57,-0.97 l -0.16,0.01 c 0.26,0.28 0.46,0.6 0.71,0.88 l 0.12,0.13 c 0.13,0.06 0.15,0.13 0.04,0.19 -0.16,-0.18 -0.29,-0.39 -0.42,-0.59 h -0.17 c 0.39,0.46 0.88,1.65 1.63,1.55 0.09,-0.01 -0.01,-0.11 -0.03,-0.13 -0.37,-0.23 -0.71,-0.48 -1.01,-0.79 0.02,0.03 -0.61,-0.8 -0.15,-0.28 0.12,0.14 0.22,0.32 0.32,0.48 0.21,0.32 0.44,0.59 0.81,0.7 0.06,0.02 0.1,-0.01 0.07,-0.06 -0.11,-0.23 -0.33,-0.39 -0.51,-0.56 -0.41,-0.35 -0.77,-0.8 -1.13,-1.21 l -0.1,0.07 c 0.54,0.35 0.93,0.86 1.38,1.32 l 0.1,-0.06 c -0.6,-0.38 -1.13,-0.94 -1.36,-1.62 h -0.15 c 0.53,0.48 0.91,1.08 1.33,1.65 l 0.13,-0.04 c -0.24,-0.2 -0.43,-0.43 -0.6,-0.7 -0.08,-0.13 -0.14,-0.28 -0.2,-0.43 -0.13,-0.35 0.21,-0.05 0.31,0.07 0.27,0.32 0.55,0.86 0.52,1.3 h 0.13 c -0.65,-0.41 -0.54,-1.23 -1.09,-1.65 -0.08,-0.07 -0.23,-0.03 -0.11,0.06 z" />
      <path
         style="fill:#ffffff"
         inkscape:connector-curvature="0"
         id="path181"
         d="m 16.51615,1036.8874 c -0.73,0.13 -1.47,0.17 -2.21,0.25 -0.65,0.07 -1.31,-0.01 -1.97,0.1 -0.1,0.02 0.09,0.14 0.12,0.15 0.98,0.21 1.97,0 2.96,0.09 l -0.14,-0.14 c -0.88,0.22 -1.79,0.18 -2.69,0.19 -0.1,0 0.07,0.13 0.09,0.14 0.44,0.14 0.89,0.14 1.34,0.13 0.6,-0.02 1.2,0.04 1.8,-0.08 0.09,-0.02 -0.08,-0.16 -0.14,-0.15 -1.2,0.19 -2.41,0.12 -3.61,-0.03 -0.12,-0.02 0.05,0.13 0.1,0.14 1.31,0.28 2.61,-0.06 3.91,-0.23 l -0.14,-0.15 c -0.92,0.17 -1.87,0.25 -2.79,0.02 l 0.09,0.13 c 0.93,-0.18 1.89,0.06 2.81,-0.2 0.07,-0.02 -0.11,-0.14 -0.16,-0.14 -0.86,0.02 -1.71,0.02 -2.57,-0.09 l 0.12,0.15 c 0.52,-0.03 1.04,0.01 1.55,-0.03 0.55,-0.04 1.09,-0.16 1.64,-0.21 l -0.14,-0.14 c -0.75,0.1 -1.5,0.19 -2.27,0.06 l 0.12,0.15 c 0.84,-0.05 1.68,-0.12 2.51,-0.22 0.1,-0.01 -0.08,-0.15 -0.14,-0.15 -0.72,0.03 -1.45,0.09 -2.18,0.1 -0.09,0 0.07,0.14 0.12,0.14 0.67,0.07 1.31,-0.01 1.96,-0.15 0.1,-0.03 -0.08,-0.16 -0.14,-0.15 -1.55,0.26 -3.12,0.45 -4.7,0.34 -0.12,0 0.03,0.13 0.08,0.14 0.68,0.18 1.36,0.03 2.05,0 l -0.14,-0.15 c -0.93,0.21 -1.88,0.18 -2.83,0.11 -0.13,-0.01 0.04,0.13 0.1,0.14 0.97,0.15 1.95,-0.03 2.92,0.11 l -0.13,-0.14 c -0.56,0.16 -1.14,0.19 -1.72,0.19 -0.53,0 -1.04,-0.12 -1.56,-0.06 -0.07,0 -0.01,0.07 0.02,0.09 0.77,0.58 2.02,0.23 2.9,0.17 l -0.14,-0.14 c -0.81,0.08 -1.62,0.21 -2.43,0.2 -0.09,-0.01 0.07,0.14 0.12,0.14 0.67,0.04 1.34,-0.09 2.01,-0.1 l -0.15,-0.14 c -0.61,0.39 -1.54,0.27 -2.22,0.15 l 0.1,0.15 c 0.85,0.12 1.7,0.01 2.55,-0.03 l -0.14,-0.15 c -0.79,0.12 -1.74,0.18 -2.48,-0.19 l 0.07,0.13 c 0.69,-0.04 1.37,-0.02 2.05,-0.02 l -0.14,-0.15 c -0.7,0.06 -1.39,0.02 -2.07,-0.14 l 0.12,0.14 c 0.49,-0.05 0.98,0.01 1.47,-0.05 0.1,-0.01 -0.08,-0.14 -0.12,-0.14 -0.47,-0.06 -0.95,-0.08 -1.42,-0.1 l 0.14,0.15 c 0.42,0.01 0.84,0.03 1.26,0.07 l -0.12,-0.14 c -0.4,-0.01 -0.79,-0.04 -1.18,-0.15 l 0.09,0.14 c 1.17,0.05 2.34,-0.05 3.5,-0.16 l -0.14,-0.14 c -0.34,0.05 -0.68,0.04 -1.03,0.03 l 0.14,0.14 c 0.56,0.02 1.12,-0.22 1.67,-0.05 0.14,0.04 0.02,-0.11 -0.05,-0.13 -0.59,-0.18 -1.17,0.06 -1.76,0.04 -0.08,0 0.08,0.14 0.14,0.14 0.35,0.02 0.69,0.03 1.03,-0.03 0.09,-0.01 -0.08,-0.15 -0.14,-0.14 -1.16,0.1 -2.33,0.2 -3.5,0.16 -0.09,-0.01 0.07,0.13 0.1,0.14 0.42,0.11 0.84,0.15 1.27,0.15 0.09,0 -0.07,-0.14 -0.12,-0.14 -0.43,-0.04 -0.87,-0.07 -1.3,-0.08 -0.09,0 0.08,0.15 0.14,0.15 0.46,0.02 0.92,0.04 1.38,0.09 l -0.12,-0.15 c -0.49,0.06 -0.98,0 -1.48,0.06 -0.1,0.01 0.09,0.14 0.12,0.14 0.7,0.17 1.41,0.21 2.12,0.15 0.09,-0.01 -0.08,-0.15 -0.14,-0.15 -0.68,0 -1.36,-0.01 -2.05,0.02 -0.09,0.01 0.05,0.12 0.07,0.13 0.79,0.4 1.78,0.35 2.62,0.23 0.1,-0.02 -0.08,-0.15 -0.14,-0.15 -0.84,0.04 -1.67,0.15 -2.51,0.03 -0.12,-0.01 0.04,0.14 0.1,0.15 0.7,0.11 1.66,0.24 2.29,-0.17 0.07,-0.04 -0.11,-0.14 -0.16,-0.14 -0.66,0.02 -1.31,0.15 -1.97,0.11 l 0.12,0.14 c 0.81,0.02 1.62,-0.11 2.43,-0.2 0.09,0 -0.08,-0.14 -0.14,-0.14 -0.47,0.03 -0.93,0.1 -1.4,0.12 -0.26,0.01 -0.53,-0.01 -0.79,-0.03 -0.71,-0.06 0.21,-0.07 0.39,-0.05 0.83,0.08 1.67,0.08 2.47,-0.15 0.07,-0.02 -0.11,-0.13 -0.14,-0.14 -0.97,-0.14 -1.95,0.04 -2.92,-0.11 l 0.1,0.14 c 0.96,0.07 1.92,0.11 2.87,-0.1 0.1,-0.02 -0.09,-0.15 -0.14,-0.15 -0.66,0.03 -1.31,0.19 -1.96,0.02 l 0.07,0.14 c 1.6,0.11 3.17,-0.08 4.74,-0.34 l -0.14,-0.15 c -0.63,0.14 -1.27,0.22 -1.92,0.16 l 0.12,0.14 c 0.73,0 1.46,-0.06 2.18,-0.09 l -0.14,-0.15 c -0.83,0.1 -1.67,0.17 -2.51,0.22 -0.09,0.01 0.08,0.14 0.12,0.15 0.78,0.13 1.54,0.04 2.31,-0.07 0.1,-0.01 -0.08,-0.15 -0.14,-0.14 -0.55,0.04 -1.09,0.15 -1.64,0.21 -0.51,0.05 -1.03,0 -1.55,0.02 -0.09,0.01 0.08,0.14 0.12,0.15 0.87,0.11 1.74,0.11 2.61,0.09 l -0.15,-0.14 c -0.91,0.25 -1.86,0 -2.78,0.19 -0.09,0.02 0.07,0.13 0.1,0.14 0.95,0.24 1.93,0.17 2.88,0 0.09,-0.02 -0.08,-0.16 -0.14,-0.15 -1.28,0.17 -2.57,0.51 -3.87,0.24 l 0.1,0.14 c 1.21,0.15 2.44,0.23 3.65,0.04 l -0.14,-0.15 c -0.5,0.11 -0.99,0.08 -1.49,0.07 -0.53,-0.01 -1.04,0.07 -1.56,-0.1 l 0.1,0.14 c 0.91,-0.01 1.83,0.02 2.72,-0.21 0.07,-0.01 -0.1,-0.13 -0.13,-0.14 -0.99,-0.08 -1.98,0.13 -2.96,-0.09 l 0.12,0.15 c 0.66,-0.11 1.32,-0.06 1.97,-0.11 0.74,-0.05 1.48,-0.12 2.21,-0.24 0.09,-0.02 -0.08,-0.16 -0.14,-0.15 z" />
      <path
         style="fill:#ffffff"
         inkscape:connector-curvature="0"
         id="path183"
         d="m 11.31615,1044.3074 c -0.11,0.1 -0.22,0.18 -0.36,0.25 l 0.17,0.15 c 0.59,-0.39 1.11,-0.89 1.77,-1.17 l -0.14,-0.16 c -0.51,0.49 -1.15,0.78 -1.75,1.14 -0.1,0.06 0.07,0.19 0.14,0.16 0.79,-0.31 1.41,-0.89 2.04,-1.45 0.08,-0.07 -0.09,-0.21 -0.17,-0.15 -0.7,0.61 -1.38,1.4 -2.32,1.64 l 0.16,0.14 c 0.41,-0.48 1.01,-0.75 1.33,-1.32 0.04,-0.07 -0.09,-0.17 -0.16,-0.14 -0.76,0.32 -1.31,1.08 -1.73,1.76 -0.06,0.09 0.11,0.17 0.18,0.13 0.58,-0.29 0.97,-0.85 1.42,-1.3 0.09,-0.08 -0.09,-0.21 -0.16,-0.15 -0.34,0.31 -0.64,0.67 -0.99,0.96 -0.24,0.21 -0.53,0.35 -0.66,0.66 -0.04,0.08 0.08,0.17 0.16,0.14 0.47,-0.13 0.8,-0.67 1.05,-1.07 0.05,-0.09 -0.11,-0.17 -0.18,-0.14 -0.47,0.25 -0.91,0.77 -1.12,1.25 -0.04,0.09 0.1,0.19 0.18,0.14 0.33,-0.21 1.21,-1.19 0.77,-1.57 -0.59,-0.52 -1.21,0.97 -1.18,1.37 0.01,0.07 0.11,0.13 0.17,0.11 0.39,-0.13 1.06,-1.29 0.68,-1.65 -0.47,-0.45 -0.68,0.83 -0.69,1.08 0,0.09 0.14,0.18 0.2,0.1 0.26,-0.28 0.28,-0.7 0.34,-1.06 0.06,-0.37 0.2,-0.72 0.09,-1.1 -0.01,-0.07 -0.17,-0.18 -0.2,-0.06 -0.14,0.55 -0.21,1.12 -0.24,1.69 0,0.08 0.15,0.19 0.2,0.1 0.28,-0.48 0.31,-1.04 0.39,-1.57 0.09,-0.6 0.16,-1.17 0.14,-1.77 l -0.2,-0.02 c 0.14,0.47 0.06,0.97 0.03,1.45 -0.03,0.52 -0.09,1.02 -0.3,1.5 l 0.2,0.11 c 0.1,-0.73 0.2,-1.44 0.26,-2.16 0.04,-0.41 0.08,-0.86 -0.15,-1.21 -0.03,-0.05 -0.14,-0.1 -0.18,-0.04 -0.23,0.44 -0.17,0.96 -0.2,1.43 -0.03,0.69 -0.1,1.42 -0.43,2.03 l 0.2,0.1 c 0.13,-0.78 0.25,-1.57 0.4,-2.35 0.09,-0.49 0.25,-1.06 0,-1.53 -0.04,-0.06 -0.14,-0.13 -0.2,-0.06 -0.23,0.28 -0.16,0.76 -0.14,1.09 0.03,0.71 0,1.44 -0.14,2.13 l 0.21,0.08 c 0.1,-0.8 0.07,-1.6 0.09,-2.4 0,-0.62 0.12,-1.24 -0.08,-1.84 -0.02,-0.06 -0.19,-0.14 -0.2,-0.04 -0.09,0.55 -0.06,1.1 -0.06,1.66 0.01,0.42 0.13,1.24 -0.28,1.53 l 0.18,0.07 c -0.22,-0.72 0.16,-1.6 0.28,-2.33 0.1,-0.56 0.32,-1.25 0.04,-1.79 -0.02,-0.05 -0.15,-0.14 -0.19,-0.06 -0.43,0.91 0.09,1.89 -0.08,2.83 l 0.21,0.08 c 0.05,-0.66 0.17,-1.31 0.3,-1.97 0.1,-0.51 0.29,-1.01 0.19,-1.54 -0.01,-0.07 -0.17,-0.17 -0.2,-0.06 -0.24,0.88 -0.21,1.77 -0.23,2.67 0,0.08 0.15,0.2 0.2,0.1 0.26,-0.48 0.27,-1.04 0.32,-1.57 0.05,-0.61 0.14,-1.21 0.07,-1.83 -0.01,-0.08 -0.2,-0.16 -0.21,-0.06 -0.02,0.61 0.04,1.21 0.1,1.81 0.06,0.56 0.3,1.26 0.05,1.79 l 0.16,0.01 -0.07,-0.09 c -0.03,-0.09 -0.24,-0.12 -0.19,0.01 0.04,0.1 0.05,0.11 0.13,0.18 0.04,0.03 0.14,0.07 0.17,0.01 0.19,-0.41 0.1,-0.86 0.03,-1.29 -0.12,-0.77 -0.2,-1.57 -0.17,-2.35 l -0.21,-0.05 c 0.07,0.59 -0.02,1.18 -0.07,1.78 -0.05,0.52 -0.05,1.06 -0.3,1.53 l 0.2,0.1 c 0.02,-0.89 -0.01,-1.79 0.22,-2.67 l -0.2,-0.05 c 0.09,0.5 -0.09,1 -0.2,1.49 -0.14,0.65 -0.25,1.31 -0.3,1.97 -0.01,0.1 0.19,0.2 0.21,0.08 0.16,-0.92 -0.35,-1.91 0.06,-2.78 l -0.19,-0.06 c 0.3,0.59 -0.01,1.54 -0.14,2.17 -0.13,0.64 -0.38,1.3 -0.18,1.95 0.02,0.06 0.12,0.11 0.18,0.07 0.34,-0.25 0.32,-0.78 0.33,-1.16 0.01,-0.7 -0.07,-1.4 0.04,-2.1 l -0.2,-0.03 c 0.21,0.62 0.07,1.3 0.07,1.95 -0.01,0.73 0,1.47 -0.09,2.2 -0.01,0.1 0.19,0.2 0.21,0.08 0.12,-0.6 0.13,-1.22 0.15,-1.84 0.01,-0.4 -0.16,-1 0.12,-1.34 l -0.2,-0.05 c 0.27,0.49 0.03,1.17 -0.06,1.69 -0.11,0.7 -0.23,1.4 -0.35,2.1 -0.01,0.08 0.16,0.19 0.2,0.1 0.3,-0.55 0.37,-1.16 0.43,-1.77 0.04,-0.54 -0.06,-1.2 0.2,-1.69 l -0.18,-0.03 c 0.26,0.39 0.12,0.97 0.09,1.41 -0.03,0.61 -0.16,1.22 -0.24,1.82 -0.01,0.08 0.16,0.2 0.2,0.1 0.22,-0.49 0.28,-1 0.32,-1.54 0.03,-0.51 0.1,-1.03 -0.05,-1.53 -0.02,-0.08 -0.2,-0.14 -0.2,-0.02 0.02,0.59 -0.03,1.15 -0.13,1.73 -0.1,0.52 -0.11,1.06 -0.38,1.53 l 0.2,0.1 c 0.03,-0.57 0.1,-1.13 0.23,-1.69 l -0.2,-0.06 c 0.09,0.36 -0.03,0.71 -0.1,1.06 -0.06,0.35 -0.07,0.75 -0.32,1.02 l 0.2,0.11 c 0.01,-0.17 0.05,-0.33 0.08,-0.49 0.02,-0.08 0.26,-0.6 0.28,-0.53 0.08,0.36 -0.32,1.21 -0.69,1.33 l 0.17,0.1 c -0.02,-0.27 0.11,-0.53 0.23,-0.77 0.06,-0.11 0.13,-0.21 0.21,-0.31 0.08,-0.1 0.49,-0.38 0.41,-0.03 -0.08,0.38 -0.49,0.91 -0.81,1.12 l 0.18,0.13 c 0.21,-0.48 0.62,-0.97 1.08,-1.21 l -0.18,-0.14 c -0.23,0.38 -0.53,0.9 -0.98,1.02 l 0.16,0.15 c 0.12,-0.28 0.4,-0.45 0.64,-0.63 0.36,-0.27 0.64,-0.65 0.98,-0.96 l -0.16,-0.15 c -0.46,0.45 -0.84,1.01 -1.42,1.3 l 0.17,0.14 c 0.4,-0.66 0.93,-1.41 1.66,-1.71 l -0.16,-0.15 c -0.31,0.56 -0.91,0.85 -1.33,1.32 -0.06,0.08 0.1,0.16 0.16,0.15 0.96,-0.24 1.65,-1.03 2.37,-1.66 l -0.17,-0.15 c -0.61,0.55 -1.22,1.12 -1.99,1.43 l 0.14,0.17 c 0.6,-0.36 1.24,-0.66 1.75,-1.15 0.08,-0.07 -0.06,-0.19 -0.14,-0.16 -0.68,0.29 -1.21,0.8 -1.82,1.19 -0.09,0.07 0.09,0.2 0.17,0.15 0.14,-0.07 0.24,-0.15 0.36,-0.25 0.08,-0.08 -0.1,-0.22 -0.17,-0.15 z" />
    </g>
  </g>
</svg>
