<?xml version="1.0" encoding="UTF-8" standalone="no"?>
<!-- Created with Inkscape (http://www.inkscape.org/) -->

<svg
   xmlns:dc="http://purl.org/dc/elements/1.1/"
   xmlns:cc="http://creativecommons.org/ns#"
   xmlns:rdf="http://www.w3.org/1999/02/22-rdf-syntax-ns#"
   xmlns:svg="http://www.w3.org/2000/svg"
   xmlns="http://www.w3.org/2000/svg"
   xmlns:sodipodi="http://sodipodi.sourceforge.net/DTD/sodipodi-0.dtd"
   xmlns:inkscape="http://www.inkscape.org/namespaces/inkscape"
   width="233"
   height="186"
   id="svg2"
   version="1.1"
   inkscape:version="0.48.5 r10040"
   sodipodi:docname="tablet_1.svg">
  <defs
     id="defs4" />
  <sodipodi:namedview
     id="base"
     pagecolor="#ffffff"
     bordercolor="#666666"
     borderopacity="1.0"
     inkscape:pageopacity="0.0"
     inkscape:pageshadow="2"
     inkscape:zoom="3.3924731"
     inkscape:cx="116.5"
     inkscape:cy="104.79081"
     inkscape:document-units="px"
     inkscape:current-layer="layer1"
     showgrid="false"
     inkscape:window-width="1440"
     inkscape:window-height="848"
     inkscape:window-x="-8"
     inkscape:window-y="-8"
     inkscape:window-maximized="1" />
  <metadata
     id="metadata7">
    <rdf:RDF>
      <cc:Work
         rdf:about="">
        <dc:format>image/svg+xml</dc:format>
        <dc:type
           rdf:resource="http://purl.org/dc/dcmitype/StillImage" />
        <dc:title />
      </cc:Work>
    </rdf:RDF>
  </metadata>
  <g
     inkscape:label="Capa 1"
     inkscape:groupmode="layer"
     id="layer1"
     transform="translate(0,-866.36218)">
    <g
       id="g4154"
       transform="matrix(1.0029543,0,0,1.0029543,-0.34843738,32.339168)">
      <path
         id="path2990"
         d="m 193.95716,920.00382 0,35.25 c 0,0.213 -0.104,0.40625 -0.25,0.40625 l -42.78125,0 c -0.4125,16.32445 4.85219,33.34757 15.8125,41.5 18.69,13.86703 41.965,11.82253 56.25,-6.3125 14.304,-18.129 10.7345,-44.09975 -7.9375,-57.96875 -6.78331,-5.04498 -13.98132,-9.75399 -21.09375,-12.875 z"
         style="fill:#ecceb5;fill-rule:evenodd"
         inkscape:connector-curvature="0" />
      <path
         id="path2992"
         d="m 35.894661,921.47257 c -6.07835,3.04355 -12.154087,7.1047 -17.9375,11.40625 -18.672,13.869 -22.2405,39.83975 -7.9375,57.96875 14.284,18.13503 37.579,20.17953 56.25,6.3125 10.96031,-8.15243 16.2248,-25.17555 15.8125,-41.5 l -45.9375,0 c -0.148,0 -0.25,-0.19325 -0.25,-0.40625 l 0,-33.78125 z"
         style="fill:#ecceb5;fill-rule:evenodd"
         inkscape:connector-curvature="0" />
      <path
         id="path2994"
         d="m 31.613411,831.56632 c -6.360003,0 -11.5625,5.03675 -11.5625,11.21875 l 0,109.6875 c 0,6.183 5.202497,11.25 11.5625,11.25 l 168.749999,0 c 6.377,0 11.5625,-5.066 11.5625,-11.25 l 0,-109.6875 c 0,-6.182 -5.1855,-11.21875 -11.5625,-11.21875 l -168.749999,0 z m 4.53125,8.0625 157.562499,0 c 0.146,0 0.25,0.19125 0.25,0.40625 l 0,115.21875 c 0,0.213 -0.104,0.40625 -0.25,0.40625 l -157.562499,0 c -0.148,0 -0.25,-0.19325 -0.25,-0.40625 l 0,-115.21875 c 0,-0.215 0.102,-0.40625 0.25,-0.40625 z"
         style="fill:#558cbc;fill-rule:evenodd"
         inkscape:connector-curvature="0" />
      <path
         id="path3000"
         d="m 24.544498,911.96903 v -28.669 c 0,-0.771 0.645,-1.416 1.456,-1.416 0.793,0 1.457,0.646 1.457,1.416 v 28.668 c 0,0.771 -0.664,1.416 -1.457,1.416 -0.811,10e-4 -1.456,-0.645 -1.456,-1.415 z"
         clip-rule="evenodd"
         inkscape:connector-curvature="0"
         style="fill:#104b72;fill-rule:evenodd" />
      <path
         id="path3002"
         d="m 197.6355,897.63503 c 0,-2.635 2.193,-4.767 4.92,-4.767 2.709,0 4.904,2.132 4.904,4.767 0,2.634 -2.195,4.784 -4.904,4.784 -2.727,0 -4.92,-2.151 -4.92,-4.784 z"
         clip-rule="evenodd"
         inkscape:connector-curvature="0"
         style="fill:#104b72;fill-rule:evenodd" />
      <path
         id="polygon3004"
         transform="translate(0,831.36218)"
         d="m 15.4375,146.875 -4,30.5 57,8.28125 3.6875,-28 L 15.4375,146.875 z"
         style="fill:#ecceb5;fill-rule:evenodd"
         inkscape:connector-curvature="0" />
      <path
         style="fill:#eccdb7;fill-rule:evenodd"
         inkscape:connector-curvature="0"
         clip-rule="evenodd"
         d="m 17.595498,956.71103 c -12.053,0.609 -13.989,11.555 -7.961,22.594 6.009,11.055 17.694,18.043 29.748003,17.416 12.036,-0.609 16.939,-10.07 10.911,-21.125 -6.009,-11.057 -20.662,-19.512 -32.698003,-18.885 z"
         id="path3008" />
      <path
         style="fill:#cead73;fill-rule:evenodd"
         inkscape:connector-curvature="0"
         clip-rule="evenodd"
         d="m 13.060498,906.68203 c -2.561,-0.305 -2.985,1.863 -3.299,4.354 l -6.93,46.318 c -0.535,4.318 2.322,11.199 6.764,11.717 4.443,0.539 9.363,-2.563 9.898,-6.881 l 5.382,-40.959 c 0.922,-7.022 -6.34,-13.903 -11.815,-14.549 z"
         id="path3010" />
      <path
         style="fill:#ecceb5;fill-rule:evenodd"
         inkscape:connector-curvature="0"
         clip-rule="evenodd"
         d="m 13.060498,906.68203 c -2.267,-0.269 -4.349,1.309 -4.626,3.512 l -7.041,51.819 c -0.479,3.816 2.046,9.91 5.991,10.375 3.925,0.465 8.386,-2.275 8.847,-6.092 l 5.584,-47.07 c 0.739,-6.218 -3.906,-11.97 -8.755,-12.544 z"
         id="path3012" />
      <path
         style="fill:#ecceb5;fill-rule:evenodd"
         inkscape:connector-curvature="0"
         clip-rule="evenodd"
         d="m 16.434498,957.33803 c -10.561,1.146 -14.358,11.592 -8.496,23.363 5.842,11.754 19.15,20.37297 29.711003,19.227 10.542,-1.129 14.358,-11.592 8.497,-23.346 -5.862,-11.772 -19.151003,-20.375 -29.712003,-19.244 z"
         id="path3014" />
      <path
         style="fill:#f4e9d7;fill-rule:evenodd"
         inkscape:connector-curvature="0"
         clip-rule="evenodd"
         d="m 9.688498,907.75803 c -0.682,0.628 -1.143,1.487 -1.254,2.437 l -1.438,10.573 c 2.746,-0.305 4.737,-0.752 7.41,-1.757 0.812,-4.39 -0.037,-11.253 -4.718,-11.253 z"
         id="path3016" />
      <path
         id="polygon3018"
         transform="translate(0,831.36218)"
         d="m 217.5625,146.875 -56.6875,10.78125 3.6875,28 57,-8.28125 -4,-30.5 z"
         style="fill:#ecceb5;fill-rule:evenodd"
         inkscape:connector-curvature="0" />
      <path
         style="fill:#eccdb7;fill-rule:evenodd"
         inkscape:connector-curvature="0"
         clip-rule="evenodd"
         d="m 215.4025,956.71103 c 12.055,0.609 13.988,11.555 7.98,22.594 -6.025,11.055 -17.711,18.043 -29.768,17.416 -12.035,-0.609 -16.936,-10.07 -10.912,-21.125 6.013,-11.057 20.665,-19.512 32.7,-18.885 z"
         id="path3022" />
      <path
         style="fill:#cead73;fill-rule:evenodd"
         inkscape:connector-curvature="0"
         clip-rule="evenodd"
         d="m 219.9395,906.68203 c 2.559,-0.305 2.984,1.863 3.295,4.354 l 6.932,46.318 c 0.535,4.318 -2.322,11.199 -6.764,11.717 -4.443,0.539 -9.365,-2.563 -9.879,-6.881 l -5.4,-40.959 c -0.922,-7.022 6.34,-13.903 11.816,-14.549 z"
         id="path3024" />
      <path
         style="fill:#ecceb5;fill-rule:evenodd"
         inkscape:connector-curvature="0"
         clip-rule="evenodd"
         d="m 219.9395,906.68203 c 2.266,-0.269 4.365,1.309 4.625,3.512 l 7.041,51.819 c 0.48,3.816 -2.049,9.91 -5.99,10.375 -3.928,0.465 -8.387,-2.275 -8.85,-6.092 l -5.582,-47.07 c -0.738,-6.218 3.907,-11.97 8.756,-12.544 z"
         id="path3026" />
      <path
         style="fill:#ecceb5;fill-rule:evenodd"
         inkscape:connector-curvature="0"
         clip-rule="evenodd"
         d="m 216.5645,957.33803 c 10.563,1.146 14.357,11.592 8.514,23.363 -5.859,11.754 -19.168,20.37297 -29.729,19.227 -10.543,-1.129 -14.359,-11.592 -8.498,-23.346 5.864,-11.772 19.151,-20.375 29.713,-19.244 z"
         id="path3028" />
      <path
         style="fill:#f4e9d7;fill-rule:evenodd"
         inkscape:connector-curvature="0"
         clip-rule="evenodd"
         d="m 223.3125,907.75803 c 0.678,0.628 1.141,1.487 1.252,2.437 l 1.438,10.573 c -2.748,-0.305 -4.74,-0.752 -7.41,-1.757 -0.811,-4.39 0.035,-11.253 4.72,-11.253 z"
         id="path3030" />
    </g>
    <rect
       style="fill:#000000;fill-opacity:1;stroke:#000000;stroke-width:0.50000000000000000;stroke-miterlimit:4;stroke-opacity:1;stroke-dasharray:none;stroke-dashoffset:0"
       id="rect3000"
       width="158.65738"
       height="116.79131"
       x="35.64732"
       y="874.41577"
       rx="0.094701797"
       ry="0.094701812" />
  </g>
</svg>
